<svg viewBox="0 0 244 68" xmlns="http://www.w3.org/2000/svg">
  <g fill="#FFF" fill-rule="nonzero">
    <path d="M237.79.124h-19.044c-.384 2.935-2.575 5.297-5.425 5.93v29.013c2.85.633 5.041 2.994 5.425 5.93h19.044c.384-2.936 2.575-5.297 5.424-5.93V6.054c-2.849-.633-5.04-2.995-5.424-5.93zm-5.21 30.539c.268 1.615-.838 1.525-.838 1.525h-6.948s-1.105.09-.84-1.525L225.57 19.2c-1.666-.943-2.792-2.728-2.792-4.779 0-3.031 2.458-5.49 5.49-5.49s5.49 2.459 5.49 5.49c0 2.051-1.127 3.838-2.793 4.779l1.615 11.463zM3.639 50.618s3.295 3.891 8.1 3.891c3.021 0 5.537-1.83 5.537-4.805 0-6.774-15.604-5.721-15.604-15.789 0-4.85 4.256-8.649 10.342-8.649 3.432 0 9.197 1.557 9.197 5.95v2.654h-4.209v-1.51c0-1.693-2.426-2.93-4.988-2.93-3.479 0-5.675 1.922-5.675 4.348 0 6.545 15.56 5.08 15.56 15.697 0 4.942-3.845 9.198-10.251 9.198C4.784 58.673.94 53.868.94 53.868l2.699-3.25zM37.273 34.418c6.498 0 9.977 4.852 9.977 10.846 0 .596-.139 1.83-.139 1.83H30.227c.274 4.943 3.844 7.734 7.963 7.734 3.98 0 6.771-2.701 6.771-2.701l1.922 3.158s-3.432 3.387-8.923 3.387c-7.321 0-12.31-5.263-12.31-12.127 0-7.367 5.034-12.127 11.623-12.127zm5.401 9.428c-.139-3.844-2.562-5.904-5.445-5.904-3.387 0-6.133 2.06-6.818 5.904h12.263zM63.358 34.418c2.792 0 8.329 1.145 8.329 5.08v2.379H67.66v-1.281c0-1.647-2.609-2.379-4.302-2.379-4.53 0-7.917 3.387-7.917 8.283 0 5.262 3.844 8.236 8.146 8.236 4.347 0 7.184-3.203 7.184-3.203l1.922 3.158s-3.295 3.981-9.426 3.981c-7.276 0-12.355-5.172-12.355-12.127 0-6.817 4.987-12.127 12.446-12.127M77.545 39.772c0-.686-.366-1.006-1.007-1.006h-1.876v-3.799h4.21c2.014 0 2.975.825 2.975 2.701v1.463c0 .916-.092 1.602-.092 1.602h.092c1.099-3.385 3.753-6.039 7.321-6.039.596 0 1.189.092 1.189.092v4.392s-.594-.136-1.326-.136c-2.838 0-5.445 2.011-6.498 5.445-.412 1.326-.549 2.744-.549 4.164v9.473h-4.439V39.772zM103.721 34.418c6.5 0 9.977 4.852 9.977 10.846 0 .596-.137 1.83-.137 1.83H96.674c.275 4.943 3.844 7.734 7.963 7.734 3.98 0 6.772-2.701 6.772-2.701l1.922 3.158s-3.433 3.387-8.923 3.387c-7.322 0-12.311-5.263-12.311-12.127.001-7.367 5.036-12.127 11.624-12.127zm5.4 9.428c-.137-3.844-2.562-5.904-5.445-5.904-3.387 0-6.133 2.06-6.818 5.904h12.263zM119.784 38.538h-3.021v-3.57h3.112v-6.36h4.348v6.36h5.537v3.57h-5.537v10.617c0 4.621 3.203 5.217 4.896 5.217.641 0 1.053-.092 1.053-.092v3.936s-.596.09-1.557.09c-2.929 0-8.832-.914-8.832-8.649V38.538h.001zM136.351 31.719c0-.641-.366-1.008-1.007-1.008h-1.968v-5.078h5.857c2.196 0 3.112.961 3.112 3.111v10.114h2.288c1.189 0 2.059-.092 2.608-1.053l6.543-12.172h6.59l-7.321 13.361c-1.007 1.83-2.06 2.379-2.06 2.379v.092s1.099.275 2.105 2.242l4.118 8.283c.458.961 1.235 1.053 2.288 1.053h.869v5.08h-3.432c-2.426 0-3.479-.32-4.529-2.425l-5.31-10.663c-.549-1.052-1.556-1.097-2.837-1.097h-1.922v14.185h-5.995V31.719h.003zM173.738 34.235c6.682 0 10.342 4.896 10.342 11.074 0 .688-.137 2.152-.137 2.152h-16.108c.458 4.118 3.479 6.268 7.002 6.268 3.752 0 6.544-2.607 6.544-2.607l2.425 4.027s-3.57 3.523-9.381 3.523c-7.733 0-12.538-5.584-12.538-12.218 0-7.184 4.849-12.219 11.851-12.219zm4.394 9.199c-.092-2.791-2.014-4.713-4.394-4.713-2.975 0-5.079 1.783-5.72 4.713h10.114zM191.541 62.836c1.602 0 3.02-.961 3.844-2.975l.777-1.785-7.779-17.525c-.274-.688-.595-.824-1.235-.824h-.687v-4.942h3.844c1.647 0 2.472.594 3.066 2.196l4.576 11.669c.458 1.19.822 3.112.822 3.112h.093s.366-1.922.778-3.112l3.981-11.669c.549-1.602 1.51-2.196 3.111-2.196h3.936v4.942h-.687c-.687 0-1.053.136-1.327.824l-8.374 21.096c-1.647 4.209-4.942 6.085-8.42 6.085-3.661 0-5.903-2.378-5.903-2.378l2.242-4.12c.001 0 1.42 1.602 3.342 1.602"/>
  </g>
</svg>