<svg xmlns="http://www.w3.org/2000/svg" viewBox="-768.333 1180.713 234.616 234.834">
  <g fill="#FFF">
    <path d="M-691.069 1294.282l8.9145-8.9144 43.5213 43.5213-8.9144 8.9144zM-711.5278 1314.8087l8.9144-8.9144 43.5213 43.5213-8.9144 8.9144z"/>
    <path d="M-538.197 1252.893l-14.584-14.584c-1.977-1.978-5.438-2.472-7.91-.989-8.652 5.438-19.528 4.202-26.697-2.966-7.169-7.169-8.405-18.292-2.966-26.697 1.483-2.472 1.236-5.685-.989-7.91l-14.584-14.584c-5.933-5.933-15.82-5.933-21.753 0l-136.203 136.203c-5.933 5.933-5.933 15.82 0 21.753l67.978 67.978c5.933 5.933 15.82 5.933 21.753 0l136.203-136.203c5.684-6.18 5.684-16.068-.248-22.001zm-9.146 12.607l-37.079 37.079-10.135-10.135-8.899 8.899 10.135 10.135-90.225 90.225c-.989.989-2.719.989-3.708 0l-67.978-67.978c-.989-.989-.989-2.719 0-3.708l90.225-90.225 10.135 10.135 8.899-8.899-10.135-10.135 37.079-37.079c.989-.989 2.719-.989 3.708 0l11.371 11.371c-5.685 12.854-2.966 27.686 7.169 37.82 10.135 10.135 25.214 12.854 37.82 7.169l11.371 11.371c1.483 1.236 1.483 2.966.247 3.955z"/>
    <path d="M-625.7778 1279.0673l8.9144-8.9144 15.5562 15.5562-8.9144 8.9144zM-648.1892 1256.9656l8.9144-8.9144 15.5562 15.5562-8.9144 8.9144z"/>
  </g>
</svg>