<svg viewBox="0 0 264 128" xmlns="http://www.w3.org/2000/svg" xmlns:xlink="http://www.w3.org/1999/xlink">
  <defs>
    <path id="a" d="M0 0h263.069v127.806H0z"/>
    <path id="c" d="M0 0h263.069v127.806H0z"/>
    <path id="e" d="M0 0h263.069v127.806H0z"/>
    <path id="g" d="M0 0h263.069v127.806H0z"/>
    <path id="i" d="M0 0h263.069v127.806H0z"/>
    <path id="k" d="M0 0h263.069v127.806H0z"/>
    <path id="m" d="M0 0h263.069v127.806H0z"/>
    <path id="o" d="M0 0h263.069v127.806H0z"/>
    <path id="q" d="M0 0h263.069v127.806H0z"/>
    <path id="s" d="M0 0h263.069v127.806H0z"/>
    <path id="u" d="M0 0h263.069v127.806H0z"/>
    <path id="w" d="M0 0h263.069v127.806H0z"/>
    <path id="y" d="M0 0h263.069v127.806H0z"/>
    <path id="A" d="M0 0h263.069v127.806H0z"/>
    <path id="C" d="M0 0h263.069v127.806H0z"/>
    <path id="E" d="M0 0h263.069v127.806H0z"/>
    <path id="G" d="M0 0h263.069v127.806H0z"/>
    <path id="I" d="M0 0h263.069v127.806H0z"/>
    <path id="K" d="M0 0h263.069v127.806H0z"/>
    <path id="M" d="M0 0h263.069v127.806H0z"/>
    <path id="O" d="M0 0h263.069v127.806H0z"/>
    <path id="Q" d="M0 0h263.069v127.806H0z"/>
    <path id="S" d="M0 0h263.069v127.806H0z"/>
    <path id="U" d="M0 0h263.069v127.806H0z"/>
    <path id="W" d="M0 0h263.069v127.806H0z"/>
    <path id="Y" d="M0 0h263.069v127.806H0z"/>
    <path id="aa" d="M0 0h263.069v127.806H0z"/>
    <path id="ac" d="M0 0h263.069v127.806H0z"/>
    <path id="ae" d="M0 0h263.069v127.806H0z"/>
    <path id="ag" d="M0 0h263.069v127.806H0z"/>
    <path id="ai" d="M0 0h263.069v127.806H0z"/>
    <path id="ak" d="M0 0h263.069v127.806H0z"/>
    <path id="am" d="M0 0h263.069v127.806H0z"/>
    <path id="ao" d="M0 0h263.069v127.806H0z"/>
  </defs>
  <g fill="none" fill-rule="evenodd">
    <mask id="b" fill="#fff">
      <use xlink:href="#a"/>
    </mask>
    <path d="M72.837 54.998c1.187 0 2.247-.546 2.544-.712 8.041-4.538 17.435-8.49 27.169-11.43 1.218-.368 2.938-.802 4.666-1.214-1.287 1.41-2.517 2.934-3.701 4.609l-.019.027c-.387.541-1.561 2.187-.723 4.003.482 1.043 1.473 1.725 2.652 1.826l.125.011.13.001c.761 0 1.151-.188 2.795-.971 3.223-1.536 11.788-5.619 21.097-7.568 4.573-.958 9.208-1.464 13.406-1.464.17 0 .338.001.505.002-.26.86-.164 1.603.028 2.162.414 1.217 1.48 2.079 2.855 2.316.509.094 1.015.142 1.502.142 2.415 0 4.046-1.133 5.236-1.959.842-.585 1.348-.918 1.95-.985.048-.005.134-.011.261-.011 1.487 0 4.102.8 5.031 1.236.657.309 1.128.547 1.583.778.414.211.804.41 1.268.625 1.027.477 2.383 1.026 3.769 1.026.292 0 .579-.024.856-.071 2.207-.379 3.749-2.264 3.749-4.583v-.615c1.891.551 3.799 1.421 5.56 2.224 2.672 1.22 4.979 2.272 7.161 2.272 1.231 0 2.317-.335 3.229-.996 1.244-.901 2.013-2.122 2.226-3.532.257-1.701-.315-3.497-1.7-5.337-.841-1.118-1.872-1.859-2.7-2.455-.2-.144-.46-.331-.67-.495-1.362-6.405-5.408-11.726-12.037-15.828-4.83-2.989-11.101-5.376-19.171-7.3-1.92-.458-3.881-.658-5.778-.853-2.106-.215-4.095-.419-5.972-.943-2.232-.625-5.23-2.266-8.13-3.853-2.173-1.189-4.419-2.418-6.567-3.359C125.076.872 122.785 0 120.551 0c-2.192 0-4.065.801-5.566 2.38l-.467.491-.204.647c-.911 2.875.619 5.178 1.736 6.86.277.417.539.811.744 1.177.339.602.387.884.377 1.03-.552.602-2.723 1.628-3.673 2.076-1.475.697-3.05 1.379-4.571 2.039-1.818.787-3.386 1.467-4.484 2.041-13.752 7.198-26.853 18.922-34.194 30.598-1.131 1.8-.828 3.155-.375 3.975.583 1.055 1.691 1.684 2.963 1.684" fill="#FFF" fill-rule="nonzero" mask="url(#b)"/>
    <mask id="d" fill="#fff">
      <use xlink:href="#c"/>
    </mask>
    <path d="M256.15 83.401c-.564-3.292-3.435-6.311-4.004-6.883l-.031-.031-.03-.029c-1.236-1.168-2.757-2.083-4.524-2.721-1.711-.613-3.58-.924-5.559-.924-2.156 0-4.281.35-6.315 1.04-2.012.682-3.861 1.629-5.498 2.814-1.247.903-2.363 1.929-3.332 3.06-.341-.935-.753-1.693-1.048-2.165-1.089-1.745-2.822-2.784-4.085-3.35-1.684-.754-3.7-1.097-4.86-1.097-2.255 0-4.374.545-6.478 1.667-.044.024-.088.047-.132.07a6.5743 6.5743 0 0 0-.448-.392c-1.473-1.182-3.209-1.319-4.386-1.319-2.317 0-4.223 1.116-5.154 1.781-.345.247-.813.589-1.274 1.041-.062-.077-.129-.148-.197-.221 1.518-1.396 2.469-3.064 2.812-4.971.399-2.213-.12-4.255-1.501-5.907-1.38-1.652-3.331-2.525-5.642-2.525-2.183 0-4.157.725-5.865 2.156-1.707 1.428-2.76 3.189-3.128 5.235-.347 1.932.005 3.745 1.019 5.291a6.444 6.444 0 0 0-.416.286c-1.412-1.374-3.489-2.192-5.656-2.192-1.221 0-2.355.268-3.278.772-.283.154-.553.328-.808.518l-.057-.036c-1.242-.761-2.78-1.146-4.574-1.146-1.848 0-3.498.331-4.906.984-1.871.872-2.751 2.076-3.157 3.132-.484-.572-1.028-1.11-1.623-1.567-2.071-1.591-4.531-2.046-5.236-2.147-1.163-.168-2.517-.253-4.022-.253-2.814 0-5.62.306-6.468.445-1.416.233-2.766.56-4.012.973l-.061.021-.06.023c-.556.212-4.758 1.924-6.287 5.354-.366-.957-.829-1.839-1.417-2.616-1.025-1.351-2.323-2.392-3.857-3.093-1.476-.673-3.077-1.014-4.76-1.014-2.034 0-4.112.556-6.176 1.654-.249.133-.57.34-.915.578-.752-.554-1.672-1.135-2.68-1.572-1.023-.445-2.67-.721-4.296-.721-.503 0-1.001.026-1.481.078-1.783.194-3.646.817-4.808 1.415-.277-.226-.581-.436-.909-.615-1.323-.727-3.027-.879-4.223-.879-1.176 0-3.099.361-4.649 1.379-1.393.913-2.639 2.58-2.9 3.877l-.041.201c-.351-.471-.737-.92-1.166-1.341-1.291-1.266-2.88-2.274-4.723-2.992-1.814-.705-3.826-1.062-5.985-1.062-2.151 0-4.282.351-6.334 1.043-2.022.683-3.882 1.622-5.528 2.794-1.42 1.01-2.667 2.184-3.739 3.479-.573-1.21-1.35-2.303-2.324-3.261-1.293-1.267-2.883-2.275-4.727-2.993-1.812-.705-3.825-1.062-5.983-1.062-2.151 0-4.282.351-6.333 1.043-2.024.683-3.884 1.622-5.529 2.794-.168.119-.323.25-.486.374 1.065-1.561 1.271-2.918 1.271-5.005 0-5.04-3.675-7.239-6.148-7.487l-.146-.015H13.968c-2.265 0-6.493 1.49-7.969 7.078-.72 2.72.026 4.599.779 5.697 1.733 2.529 4.846 2.945 5.194 2.984l.162.018h1.256L2.292 91.38l-.174.164-.146.189C.127 94.142-.458 96.99.366 99.547c1.457 4.526 6.866 4.947 7.479 4.98l.078.004h19.809c1.745-.025 4.382-.064 6.51-2.275.409-.425.89-.983 1.336-1.705.085.092.167.186.255.276 1.26 1.29 2.829 2.33 4.662 3.089 1.822.755 3.85 1.138 6.029 1.138 2.122 0 4.236-.363 6.282-1.079 1.989-.696 3.848-1.647 5.525-2.828a20.0505 20.0505 0 0 0 3.883-3.567c.559 1.196 1.312 2.285 2.253 3.247 1.26 1.29 2.83 2.33 4.662 3.089 1.823.755 3.852 1.138 6.031 1.138 2.122 0 4.235-.363 6.283-1.079 1.988-.696 3.846-1.647 5.524-2.828.721-.506 1.393-1.057 2.028-1.634.081.947.326 2.015.914 2.969 1.527 2.478 4.915 2.636 5.3 2.646h-.012c.063.003.141.011.231.019.308.026.775.067 1.302.067 1.419 0 2.658-.302 3.686-.897 1.574-.911 2.668-2.468 3.304-3.599.35 1.005.891 1.677 1.362 2.106.394.511.887.945 1.47 1.296.654.393 1.398.671 2.21.824.636.122 1.316.184 2.009.184 1.684 0 3.094-.29 4.315-.887 1.521-.745 2.593-2.029 3.233-2.993 1.091 2.475 3.692 3.939 7.226 3.939.462 0 .943-.024 1.425-.074 2.988-.304 4.96-1.884 6.04-3.297.556.644 1.243 1.236 2.068 1.796 1.639 1.111 3.628 1.651 6.08 1.651.705 0 1.342-.04 1.902-.076.229-.014.446-.028.648-.037 1.966-.088 4.027-.973 5.233-1.586.162.156.338.3.524.43 1.199.831 2.713 1.255 4.5 1.255 2.193 0 4.371-.957 5.204-1.369.575-.285 1.053-.595 1.452-.92.291.301.637.598 1.062.881 1.31.87 2.991 1.312 5 1.312 1.877 0 3.592-.38 5.096-1.129 1.956-.975 3.104-2.282 3.412-3.884l1.582-8.206c.111-.582.277-1.12.504-1.631.404-.164 1.282-.298 1.84-.383.856-.131 1.801-.278 2.696-.62l-2.01 9.947c-.176.882-.306 3.112 2.304 4.835 1.31.865 3.02 1.304 5.083 1.304 1.841 0 3.542-.376 5.055-1.118.897-.441 1.618-.953 2.177-1.527.574.694 2.173 2.327 4.707 2.625.329.039.676.059 1.035.059 2.238 0 4.62-.761 5.526-1.275 1.598-.909 2.613-2.054 3.028-3.408.224.629.545 1.271 1.005 1.846 1.493 1.865 3.963 2.469 4.445 2.571l.001-.004c.411.076 1.419.22 2.057.22.25 0 2.494-.03 4.5-1.09 1.674-.884 3.06-2.495 3.371-3.917l.224-1.016c.463.655 1 1.264 1.62 1.819 1.384 1.243 3.115 2.22 5.14 2.9 1.944.652 4.174.983 6.632.983 1.817 0 3.542-.176 5.13-.523 1.588-.347 3.02-.812 4.255-1.383 1.329-.614 2.395-1.296 3.251-2.083 1.09-1.005 1.737-2.036 1.976-3.156.144-.684.154-1.414.031-2.179a7.0438 7.0438 0 0 0-.572-1.855c1.283-.629 2.834-1.752 3.741-3.703l.013-.026.01-.026c.129-.292 1.245-2.966.602-6.719M33.607 86.74l-.604 2.71c-.498-.257-.997-.449-1.466-.567l-.356-.091H28.349l7.49-6.98c-1.095 1.549-1.848 3.203-2.232 4.928" fill="#FFF" fill-rule="nonzero" mask="url(#d)"/>
    <mask id="f" fill="#fff">
      <use xlink:href="#e"/>
    </mask>
    <path d="M185.7 38.574c-1.089-1.448-2.907-2.152-3.741-3.298-2.265-13.314-16.984-18.782-29.172-21.688-3.753-.895-7.928-.724-11.859-1.825-4.312-1.206-10.101-5.167-15.085-7.35-3.495-1.531-6.496-2.36-8.73-.01-.64 2.02 1.159 3.786 2.241 5.713.609 1.082.992 2.215.591 3.472-.456 1.431-2.696 2.549-5.192 3.728-3.267 1.543-7.074 3.047-8.948 4.027-13.946 7.299-26.351 18.872-33.069 29.559-1.013 1.61.567 1.183 1.202.825 8.43-4.757 18.059-8.752 27.762-11.683 2.533-.765 7.051-1.788 9.572-2.342 4.719-4.066 10.214-7.274 16.965-10.998a.3654.3654 0 0 0-.014-.028c-.534-1.039-1.646-3.2-.141-5.677.447-.737 1.564-1.974 4.021-1.974 1.016 0 2.196.214 3.411.619 2.187.728 5.538 2.494 7.49 4.256 10.797.283 19.386 3.885 23.688 9.979.196.276.409.626.715 1.171.147.263.254.547.314.842.012.056.023.114.034.178.002.01.003.019.005.029.206 1.159.503 1.936.909 2.377.113.07.22.149.324.234 6.984.524 13.894 6.698 16.805 4.59 1.646-1.192 1.216-2.977-.098-4.726" fill="#003751" mask="url(#f)"/>
    <mask id="h" fill="#fff">
      <use xlink:href="#g"/>
    </mask>
    <path d="M168.294 42.216c-.342-.451-.756-.833-1.154-1.232a2.4278 2.4278 0 0 1-.526-.407c-1.031-1.045-1.485-2.503-1.746-3.964-.008-.041-.013-.084-.021-.126-.218-.387-.407-.707-.554-.916-3.796-5.375-12.037-8.733-22.581-8.752-.647-1.087-4.234-3.426-7.126-4.389-1.853-.617-3.535-.662-3.994.093-1.174 1.933 1.208 3.174.792 5.09-.162.746-.615 1.038-1.403 1.484-10.455 5.757-17.899 10.131-24.07 18.85-.149.213-.872 1.179-.235 1.233.412.036 11.073-5.918 23.294-8.476 5.92-1.239 11.784-1.734 16.922-1.447.449.025 2.187.24 2.791.787.326.297-.97 1.147-1.78 2.009-.686.729-.988 1.495-.023 1.651 3.632.683 4.677-2.481 7.851-2.83 2.031-.223 5.556.872 6.863 1.486 1.307.613 1.946.981 2.843 1.399 1.001.466 2.063.864 2.887.723.652-.112 1.31-.66 1.31-1.688-.096-.205-.207-.4-.34-.578" fill="#0794D2" fill-rule="nonzero" mask="url(#h)"/>
    <mask id="j" fill="#fff">
      <use xlink:href="#i"/>
    </mask>
    <path d="M52.247 76.402c1.801 0 3.439.287 4.918.863 1.477.574 2.721 1.359 3.735 2.352 1.011.992 1.729 2.16 2.157 3.501.425 1.343.472 2.762.138 4.26l-.814 3.659c-.326 1.463-.999 2.858-2.017 4.181-1.021 1.325-2.26 2.5-3.723 3.528-1.462 1.028-3.064 1.848-4.804 2.457-1.741.609-3.513.914-5.313.914-1.801 0-3.436-.305-4.906-.914-1.47-.609-2.699-1.419-3.687-2.431-.99-1.01-1.696-2.186-2.122-3.528-.427-1.341-.476-2.744-.151-4.207l.815-3.659c.326-1.463.987-2.857 1.987-4.181 1-1.323 2.209-2.491 3.628-3.502 1.419-1.01 3.007-1.812 4.765-2.404 1.755-.592 3.554-.889 5.394-.889zm.889 11.014c.08-.452.071-.895-.023-1.33-.097-.434-.252-.821-.465-1.16-.215-.338-.497-.611-.849-.82-.353-.21-.745-.314-1.179-.314-.431 0-.853.104-1.265.314-.412.209-.792.482-1.14.82-.349.339-.641.726-.876 1.16-.236.435-.392.878-.473 1.33l-.6 3.382c-.171.968-.021 1.828.451 2.585.471.757 1.138 1.136 2.003 1.136.865 0 1.674-.379 2.429-1.136.754-.757 1.216-1.617 1.387-2.585l.6-3.382z" fill="#D41F3B" fill-rule="nonzero" mask="url(#j)"/>
    <mask id="l" fill="#fff">
      <use xlink:href="#k"/>
    </mask>
    <path d="M80.883 76.402c1.8 0 3.44.287 4.918.863 1.477.574 2.722 1.359 3.734 2.352 1.012.992 1.731 2.16 2.157 3.501.426 1.343.473 2.762.139 4.26l-.815 3.659c-.325 1.463-.999 2.858-2.016 4.181-1.02 1.325-2.26 2.5-3.723 3.528-1.462 1.028-3.064 1.848-4.804 2.457-1.741.609-3.513.914-5.313.914-1.801 0-3.437-.305-4.907-.914-1.469-.609-2.699-1.419-3.687-2.431-.988-1.01-1.696-2.186-2.121-3.528-.427-1.341-.476-2.744-.151-4.207l.815-3.659c.325-1.463.988-2.857 1.987-4.181 1-1.323 2.209-2.491 3.628-3.502 1.419-1.01 3.007-1.812 4.763-2.404 1.757-.592 3.555-.889 5.396-.889zm.889 11.014c.079-.452.071-.895-.024-1.33-.097-.434-.251-.821-.464-1.16-.215-.338-.497-.611-.85-.82-.351-.21-.745-.314-1.177-.314-.432 0-.854.104-1.265.314-.413.209-.793.482-1.141.82a4.805 4.805 0 0 0-.876 1.16c-.237.435-.393.878-.473 1.33l-.6 3.382c-.172.968-.022 1.828.45 2.585.472.757 1.14 1.136 2.005 1.136.864 0 1.673-.379 2.427-1.136.755-.757 1.217-1.617 1.388-2.585l.6-3.382z" fill="#D41F3B" fill-rule="nonzero" mask="url(#l)"/>
    <mask id="n" fill="#fff">
      <use xlink:href="#m"/>
    </mask>
    <path d="M13.968 68.107h20.761s3.506.352 3.506 4.565c0 2.121-.19 2.846-1.597 4.384L20.888 91.73h9.927s3.853.977 3.079 5.131c-.308 1.649-1.094 2.658-1.769 3.359-1.216 1.264-2.748 1.35-4.435 1.375H8.003s-3.962-.214-4.843-2.948c-.38-1.179-.443-3.056 1.144-5.126L20.801 78.01h-8.503s-4.648-.519-3.46-5.011c1.296-4.909 5.13-4.892 5.13-4.892" fill="#D41F3B" fill-rule="nonzero" mask="url(#n)"/>
    <mask id="p" fill="#fff">
      <use xlink:href="#o"/>
    </mask>
    <path d="M95.244 102.192c-.514 0-2.253-.305-2.835-1.251-.814-1.32-.408-3.41-.408-3.41l3.676-18.293c.07-.352.714-1.399 1.63-2.001 1.037-.678 2.387-.897 3.04-.897 1.013 0 2.125.141 2.811.518 1.178.645 1.938 2.203 1.938 2.203s1.019-1.129 1.458-1.402c.643-.401 2.369-1.074 4.049-1.257 1.825-.198 3.613.122 4.293.418 2.03.88 3.723 2.621 3.723 2.621s1.804-1.4 2.418-1.728c1.642-.874 3.241-1.311 4.797-1.311 1.265 0 2.447.25 3.54.749 1.096.5 2.006 1.231 2.736 2.194.729.964 1.226 2.14 1.488 3.532.263 1.39.215 2.978-.143 4.761l-2.351 11.698s-1.089 2.516-4.433 2.856c-2.696.274-5.698-.341-5.963-3.341 0 0 1.861-8.888 2.279-10.864.417-1.975.113-2.773-1.635-2.583-1.747.19-2.088 1.71-2.354 2.47-.266.759-2.165 10.104-2.659 10.939 0 0-.951 2.01-2.546 2.791-.937.458-1.973.588-3.023.588-.507 0-.996-.043-1.465-.133-.472-.089-.884-.242-1.239-.455-.356-.214-.628-.483-.816-.803 0 0-1.091-.545-.939-2.823.152-2.279 2.051-10.561 2.051-10.561s.266-2.164-1.025-2.241c-1.291-.075-2.584.95-3.23 3.154-.645 2.202-2.051 9.002-2.507 10.066-.235.549-1.22 2.547-2.659 3.38-1.345.781-3.136.416-3.697.416" fill="#003751" fill-rule="nonzero" mask="url(#p)"/>
    <mask id="r" fill="#fff">
      <use xlink:href="#q"/>
    </mask>
    <path d="M162.675 81.585c-.143-.88-1.078-2.429-2.449-3.483-1.213-.932-2.813-1.418-3.865-1.57-3.741-.537-8.802.054-9.596.184-1.273.209-2.458.497-3.563.863 0 0-4.677 1.786-4.946 4.886-.059.679.241 1.54.804 1.953.833.609 2.109.603 2.603.573 1.875-.114 4.937-2.296 4.937-2.296.881-.459 4.593-1.799 5.397 0 .803 1.799-.152 2.564-.995 2.947s-4.364.421-5.933.498c-1.569.076-4.554.765-5.895 1.454 0 0-1.443.729-2.679 2.105-1.143 1.274-2.075 3.13-2.297 4.823-.459 3.521.269 5.129 2.527 6.659 2.259 1.532 5.091 1.114 6.852 1.036 1.76-.079 3.981-1.188 4.861-1.725l1.763-1.406c-.16.698.235 2.007.938 2.495.702.489 1.643.732 2.826.732 1.345 0 2.915-.578 3.903-1.066.991-.488 1.567-1.079 1.727-1.778l2.354-12.822c.161-.691 1.021-3.256.726-5.062zm-12.707 10.403c-.125.582-.369 1.133-.73 1.652-.363.521-.768.973-1.217 1.355-.449.384-.912.682-1.391.895-.479.215-.918.322-1.318.322-.567 0-.999-.153-1.299-.459-.301-.306-.379-.796-.233-1.47.119-.551.362-.986.731-1.309.368-.32.831-.572 1.387-.756.554-.184 1.172-.299 1.847-.345.674-.046 1.363-.069 2.063-.069h.199l-.039.184z" fill="#003751" fill-rule="nonzero" mask="url(#r)"/>
    <mask id="t" fill="#fff">
      <use xlink:href="#s"/>
    </mask>
    <path d="M174.925 88.431c-.48.896-.83 1.875-1.037 2.947l-1.582 8.21c-.126.657-.738 1.26-1.838 1.807-1.099.547-2.359.821-3.785.821-1.426 0-2.55-.274-3.373-.821-.823-.547-1.172-1.15-1.045-1.807l4.015-20.855c.148-.766.73-1.386 1.751-1.862 1.02-.473 2.243-.711 3.669-.711 1.252 0 2.264.238 3.037.711.772.476 1.085 1.096.937 1.862l-.391 2.025s1.211-3.173 3.264-4.294c2.053-1.122 6.843.018 6.501 3.781-.342 3.764-2.675 5.481-3.925 6.152-1.605.862-4.746.412-6.198 2.034" fill="#003751" fill-rule="nonzero" mask="url(#t)"/>
    <mask id="v" fill="#fff">
      <use xlink:href="#u"/>
    </mask>
    <path d="M192.438 76.464c1.396 0 2.545.238 3.453.709.906.474 1.283 1.093 1.129 1.858l-4.199 20.799c-.135.655-.757 1.255-1.869 1.802-1.114.545-2.368.818-3.762.818-1.482 0-2.639-.273-3.465-.818-.827-.547-1.175-1.147-1.043-1.802l4.201-20.799c.155-.765.749-1.384 1.782-1.858 1.032-.471 2.29-.709 3.773-.709" fill="#003751" fill-rule="nonzero" mask="url(#v)"/>
    <mask id="x" fill="#fff">
      <use xlink:href="#w"/>
    </mask>
    <path d="M214.777 102.286s-1.848-.392-2.76-1.532c-.912-1.14-.875-3.079-.875-3.079.19-.798 1.673-6.12 2.167-8.218.494-2.098.494-4.136-1.406-4.174-1.9-.039-2.889 2.167-2.889 2.167l-3.067 12.29c-.147.674-.718 1.293-1.707 1.857-.542.307-2.93 1.07-4.767.853-1.524-.18-2.557-1.279-2.85-1.659-.544-.702-.478-2.438-.329-3.113l4.045-18.453c.172-.788.791-1.31 1.635-1.913.899-.642 2.165-1.234 3.447-1.234 1.055 0 1.916.166 2.547.673.374.3.944.772.771 1.559l-.284 1.293c1.088-1.039 1.801-1.422 3.313-2.229 1.544-.823 3.21-1.321 5.096-1.321.682 0 2.311.237 3.66.841.617.276 2.026.994 2.792 2.222.328.526 1.058 1.839 1.19 3.381.153 1.761-.327 3.784-.514 4.644l-2.764 12.599c-.094.432-.839 1.401-1.875 1.949-1.121.594-2.558.75-3.127.75-.454 0-1.449-.153-1.516-.169" fill="#003751" fill-rule="nonzero" mask="url(#x)"/>
    <g>
      <mask id="z" fill="#fff">
        <use xlink:href="#y"/>
      </mask>
      <path d="M253.253 83.896c.512 2.991-.392 5.038-.392 5.038-1.062 2.285-3.737 2.791-3.737 2.791h-13.768s-.393 1.966.668 3.304c1.322 1.664 3.424 1.574 4.8.984 1.376-.591 2.943-1.371 2.943-1.371.606-.232 1.171-.455 1.699-.67.525-.215 1.018-.321 1.479-.321.499 0 .931.134 1.296.402s.642.589.832.964c.188.375.315.769.382 1.179.066.411.065.777-.002 1.098-.107.502-.472 1.038-1.092 1.609-.621.571-1.453 1.098-2.497 1.58-1.043.482-2.26.876-3.648 1.179-1.389.304-2.89.456-4.503.456-2.152 0-4.05-.278-5.698-.831-1.649-.553-3.021-1.321-4.117-2.304-1.096-.982-1.852-2.17-2.266-3.565-.414-1.392-.437-2.946-.073-4.662l.833-3.911c.321-1.501.968-2.922 1.944-4.262.977-1.339 2.168-2.517 3.575-3.536 1.406-1.019 2.98-1.822 4.719-2.412 1.737-.589 3.528-.884 5.371-.884 1.65 0 3.172.251 4.563.75 1.39.501 2.556 1.198 3.5 2.091 0 0 2.755 2.764 3.189 5.304zm-10.678 2.125c.346 0 .613-.067.804-.203.188-.134.328-.389.415-.767.187-.809-.028-1.415-.645-1.82-.615-.404-1.366-.607-2.249-.607-.851 0-1.679.203-2.482.607-.806.405-1.302 1.011-1.489 1.82l-.225.97h5.871z" fill="#003751" fill-rule="nonzero" mask="url(#z)"/>
    </g>
    <g>
      <mask id="B" fill="#fff">
        <use xlink:href="#A"/>
      </mask>
      <path d="M194.464 65.276c1.439 0 2.568.491 3.388 1.471.819.981 1.109 2.149.865 3.503-.244 1.355-.955 2.533-2.129 3.536-1.177 1.005-2.484 1.507-3.923 1.507-1.482 0-2.632-.502-3.446-1.507-.815-1.003-1.102-2.181-.858-3.536.244-1.354.951-2.522 2.123-3.503 1.17-.98 2.498-1.471 3.98-1.471" fill="#003751" fill-rule="nonzero" mask="url(#B)"/>
    </g>
    <g>
      <mask id="D" fill="#fff">
        <use xlink:href="#C"/>
      </mask>
      <path d="M263.07 73.069c0 2.372-1.908 4.254-4.33 4.254-2.424 0-4.358-1.882-4.358-4.254s1.934-4.228 4.383-4.228c2.397 0 4.305 1.856 4.305 4.228zm-7.605 0c0 1.882 1.418 3.378 3.3 3.378 1.831.025 3.223-1.496 3.223-3.352 0-1.883-1.392-3.403-3.275-3.403-1.83 0-3.248 1.52-3.248 3.377zm2.604 2.192h-.98v-4.228c.387-.053.928-.13 1.624-.13.8 0 1.159.13 1.445.335.257.182.438.49.438.903 0 .515-.388.85-.878 1.005v.052c.413.128.619.464.748 1.031.13.645.232.877.31 1.032h-1.031c-.129-.155-.207-.517-.336-1.032-.077-.438-.335-.645-.877-.645h-.463v1.677zm.026-2.373h.464c.541 0 .979-.18.979-.618 0-.387-.284-.644-.902-.644-.259 0-.437.025-.541.051v1.211z" fill="#003751" fill-rule="nonzero" mask="url(#D)"/>
    </g>
    <g>
      <mask id="F" fill="#fff">
        <use xlink:href="#E"/>
      </mask>
      <path d="M160.134 124.19a.322.322 0 0 1-.291-.183l-2.102-4.368h-.443v4.228c0 .178-.145.323-.324.323h-2.723a.3229.3229 0 0 1-.323-.323v-12.228c0-.179.144-.324.323-.324h4.845c2.527 0 4.293 1.708 4.293 4.153 0 1.64-.851 2.968-2.295 3.617l2.331 4.637c.049.1.045.219-.014.314a.3225.3225 0 0 1-.275.154h-3.002zm-1.556-7.547c.879 0 1.404-.434 1.404-1.16 0-.96-.763-1.161-1.404-1.161h-1.28v2.321h1.28z" fill="#C82E47" fill-rule="nonzero" mask="url(#F)"/>
    </g>
    <g>
      <mask id="H" fill="#fff">
        <use xlink:href="#G"/>
      </mask>
      <path d="M159.096 111.639c2.419 0 3.969 1.655 3.969 3.829 0 1.652-.917 2.915-2.419 3.448l2.49 4.951h-3.002l-2.19-4.552h-.969v4.552h-2.724v-12.228h4.845zm-2.121 5.327h1.603c1.124 0 1.728-.621 1.728-1.483 0-.914-.604-1.484-1.728-1.484h-1.603v2.967zm2.121-5.974h-4.845c-.358 0-.647.29-.647.647v12.228c0 .357.289.646.647.646h2.724c.357 0 .646-.289.646-.646v-3.732l1.93 4.012c.108.224.335.366.583.366h3.002c.224 0 .432-.116.55-.307a.6484.6484 0 0 0 .028-.63l-2.186-4.345c1.381-.744 2.184-2.107 2.184-3.763 0-2.594-1.942-4.476-4.616-4.476zm-1.475 3.653h.957c1.081 0 1.081.609 1.081.838 0 .692-.588.837-1.081.837h-.957v-1.675z" fill="#FFF" fill-rule="nonzero" mask="url(#H)"/>
    </g>
    <g>
      <mask id="J" fill="#fff">
        <use xlink:href="#I"/>
      </mask>
      <path d="M169.08 124.444c-2.78 0-4.877-2.094-4.877-4.871 0-2.772 2.097-4.862 4.877-4.862s4.877 2.09 4.877 4.862c0 2.777-2.097 4.871-4.877 4.871m0-6.667c-.742 0-1.609.47-1.609 1.796 0 1.252.808 1.813 1.609 1.813.741 0 1.607-.475 1.607-1.813 0-1.324-.83-1.796-1.607-1.796" fill="#C82E47" fill-rule="nonzero" mask="url(#J)"/>
    </g>
    <g>
      <mask id="L" fill="#fff">
        <use xlink:href="#K"/>
      </mask>
      <path d="M169.08 115.033c2.57 0 4.554 1.882 4.554 4.539 0 2.655-1.984 4.549-4.554 4.549-2.552 0-4.554-1.894-4.554-4.549 0-2.657 2.002-4.539 4.554-4.539m0 6.675c1.002 0 1.931-.688 1.931-2.136 0-1.448-.929-2.119-1.931-2.119-.983 0-1.933.671-1.933 2.119 0 1.432.95 2.136 1.933 2.136m0-7.321c-2.965 0-5.2 2.229-5.2 5.185 0 2.962 2.235 5.195 5.2 5.195 2.965 0 5.2-2.233 5.2-5.195 0-2.956-2.235-5.185-5.2-5.185m0 6.675c-.593 0-1.286-.39-1.286-1.49 0-1.086.664-1.472 1.286-1.472.302 0 1.284.106 1.284 1.472 0 1.383-.982 1.49-1.284 1.49" fill="#FFF" fill-rule="nonzero" mask="url(#L)"/>
    </g>
    <g>
      <mask id="N" fill="#fff">
        <use xlink:href="#M"/>
      </mask>
      <path d="M186.55 124.19a.3229.3229 0 0 1-.323-.323V118.9c0-.419-.136-1.123-1.042-1.123-.765 0-1.108.572-1.108 1.14v4.95c0 .178-.144.323-.323.323h-2.587a.3229.3229 0 0 1-.323-.323V118.9c0-.419-.138-1.123-1.058-1.123-.752 0-1.088.582-1.088 1.16v4.93c0 .178-.144.323-.323.323h-2.622a.3229.3229 0 0 1-.323-.323v-8.576c0-.179.144-.323.323-.323h2.5c.179 0 .323.144.323.323v.143c.614-.477 1.451-.723 2.14-.723 1.124 0 2.018.389 2.566 1.107.668-.762 1.497-1.107 2.629-1.107 1.613 0 3.496.942 3.496 3.599v5.557c0 .178-.144.323-.323.323h-2.534z" fill="#C82E47" fill-rule="nonzero" mask="url(#N)"/>
    </g>
    <g>
      <mask id="P" fill="#fff">
        <use xlink:href="#O"/>
      </mask>
      <path d="M185.911 115.033c1.622 0 3.173.95 3.173 3.276v5.557h-2.534V118.9c0-.81-.431-1.447-1.366-1.447-.929 0-1.43.703-1.43 1.463v4.95h-2.587V118.9c0-.81-.431-1.447-1.381-1.447-.914 0-1.411.703-1.411 1.483v4.93h-2.622v-8.575h2.5v.983c.431-.756 1.533-1.241 2.463-1.241 1.224 0 2.109.5 2.538 1.347.672-.962 1.498-1.347 2.657-1.347m0-.646c-1.082 0-1.932.307-2.619.956-.617-.616-1.515-.956-2.576-.956-.611 0-1.327.179-1.938.527a.6448.6448 0 0 0-.525-.27h-2.5c-.358 0-.647.29-.647.647v8.575c0 .357.289.647.647.647h2.622c.357 0 .646-.29.646-.647v-4.93c0-.139.037-.836.765-.836.201 0 .734 0 .734.8v4.966c0 .357.289.647.647.647h2.587c.357 0 .646-.29.646-.647v-4.95c0-.136.038-.816.784-.816.197 0 .719 0 .719.8v4.966c0 .357.289.647.647.647h2.534c.357 0 .646-.29.646-.647v-5.557c0-2.895-2.057-3.922-3.819-3.922" fill="#FFF" fill-rule="nonzero" mask="url(#P)"/>
    </g>
    <g>
      <mask id="R" fill="#fff">
        <use xlink:href="#Q"/>
      </mask>
      <path d="M195.559 124.444c-2.378 0-4.785-1.679-4.785-4.889 0-3.033 2.337-4.845 4.596-4.845 2.848 0 4.617 1.81 4.617 4.723 0 .194-.015.772-.065.917a.3234.3234 0 0 1-.306.217h-1.853l1.836.52c.172.048.272.227.224.398-.403 1.431-1.734 2.959-4.264 2.959zm-1.525-3.877c.196.594.813 1.008 1.563 1.008.737 0 1.202-.296 1.421-.906a.3679.3679 0 0 1 .059-.102h-3.043zm2.709-2.336c-.119-.354-.446-.804-1.334-.804-.729 0-1.136.406-1.302.804h2.636z" fill="#C82E47" fill-rule="nonzero" mask="url(#R)"/>
    </g>
    <g>
      <mask id="T" fill="#fff">
        <use xlink:href="#S"/>
      </mask>
      <path d="M195.37 115.034c2.659 0 4.294 1.642 4.294 4.399 0 .364-.03.761-.048.812h-5.969c.051.964.93 1.654 1.95 1.654.95 0 1.483-.447 1.725-1.12l2.19.619c-.417 1.481-1.774 2.723-3.953 2.723-2.361 0-4.462-1.684-4.462-4.566 0-2.759 2.05-4.521 4.273-4.521zm-1.672 3.521h3.435c-.037-.657-.486-1.451-1.724-1.451-1.106 0-1.66.812-1.711 1.451zm1.672-4.168c-2.418 0-4.919 1.933-4.919 5.168 0 3.422 2.569 5.212 5.108 5.212 2.71 0 4.14-1.649 4.575-3.193a.6475.6475 0 0 0-.284-.727.6456.6456 0 0 0 .377-.391c.082-.238.083-.991.083-1.023 0-3.112-1.892-5.046-4.94-5.046zm-.578 3.521c.153-.094.355-.157.617-.157.309 0 .53.062.689.157h-1.306zm-.175 2.983h1.92c-.161.201-.435.361-.94.361-.394 0-.743-.137-.98-.361z" fill="#FFF" fill-rule="nonzero" mask="url(#T)"/>
    </g>
    <g>
      <mask id="V" fill="#fff">
        <use xlink:href="#U"/>
      </mask>
      <path d="M211.301 124.19a.3229.3229 0 0 1-.323-.323v-12.228c0-.179.144-.324.323-.324h2.761c.178 0 .323.145.323.324v12.228c0 .178-.145.323-.323.323h-2.761z" fill="#003851" fill-rule="nonzero" mask="url(#V)"/>
    </g>
    <g>
      <mask id="X" fill="#fff">
        <use xlink:href="#W"/>
      </mask>
      <path d="M214.062 123.867h-2.761v-12.228h2.761v12.228zm0-12.875h-2.761c-.357 0-.646.29-.646.646v12.229c0 .356.289.646.646.646h2.761c.357 0 .646-.29.646-.646v-12.229c0-.356-.289-.646-.646-.646z" fill="#FFF" fill-rule="nonzero" mask="url(#X)"/>
    </g>
    <g>
      <mask id="Z" fill="#fff">
        <use xlink:href="#Y"/>
      </mask>
      <path d="M220.37 124.346c-1.937 0-3.188-1.21-3.188-3.083v-3.352h-1.188a.3229.3229 0 0 1-.323-.323v-2.297c0-.179.144-.323.323-.323h.431c.87 0 1-.67 1-1.069v-1.109c0-.178.144-.323.323-.323h2.349c.178 0 .323.145.323.323v2.178h1.35c.179 0 .324.144.324.323v2.297c0 .178-.145.323-.324.323h-1.35v2.884c0 .445.139.573.622.573.25 0 .487-.049.63-.079a.2862.2862 0 0 1 .065-.006c.073 0 .146.025.204.072.075.061.119.154.119.251v2.172c0 .12-.067.231-.174.287-.163.084-.638.281-1.516.281" fill="#003851" fill-rule="nonzero" mask="url(#Z)"/>
    </g>
    <g>
      <mask id="ab" fill="#fff">
        <use xlink:href="#aa"/>
      </mask>
      <path d="M220.097 112.79v2.501h1.674v2.297h-1.674v3.207c0 .707.38.896.945.896.279 0 .535-.052.696-.085v2.172c-.108.055-.537.245-1.368.245-1.773 0-2.864-1.054-2.864-2.76v-3.675h-1.512v-2.297h.431c.893 0 1.323-.6 1.323-1.392v-1.109h2.349m0-.646h-2.349c-.357 0-.646.29-.646.646v1.109c0 .745-.491.745-.677.745h-.431c-.357 0-.646.29-.646.647v2.297c0 .357.289.646.646.646h.866v3.029c0 2.069 1.378 3.406 3.51 3.406.95 0 1.481-.221 1.664-.317.215-.111.35-.333.35-.574v-2.172a.651.651 0 0 0-.238-.502.6501.6501 0 0 0-.408-.145c-.044 0-.088.005-.131.014-.13.026-.348.072-.565.072-.216 0-.276-.038-.277-.038.002-.004-.022-.071-.022-.212v-2.561h1.028c.357 0 .646-.289.646-.646v-2.297c0-.357-.289-.647-.646-.647h-1.028v-1.854c0-.356-.289-.646-.646-.646" fill="#FFF" fill-rule="nonzero" mask="url(#ab)"/>
    </g>
    <g>
      <mask id="ad" fill="#fff">
        <use xlink:href="#ac"/>
      </mask>
      <path d="M226.579 124.429c-2.162 0-3.294-1.472-3.294-2.927 0-1.47.983-2.552 2.584-2.867l-2.151-.44a.3228.3228 0 0 1-.257-.344c.107-1.263 1.282-3.141 4.082-3.141 2.58 0 4.12 1.358 4.12 3.634v4.196c0 .645.079 1.19.093 1.264a.3184.3184 0 0 1-.067.267.3218.3218 0 0 1-.25.118h-2.361a.3233.3233 0 0 1-.314-.242c-.008-.037-.027-.115-.045-.238-.546.469-1.283.72-2.14.72zm.639-3.727c-.613.094-.697.358-.697.63 0 .355.247.551.696.551.828 0 1.247-.464 1.247-1.379v-.004l-1.246.202zm.309-3.287c-.737 0-1.107.48-1.146.956a.3267.3267 0 0 1-.087.195l1.821-.28c.349-.054.349-.177.349-.267 0-.367-.368-.604-.937-.604z" fill="#003851" fill-rule="nonzero" mask="url(#ad)"/>
    </g>
    <g>
      <mask id="af" fill="#fff">
        <use xlink:href="#ae"/>
      </mask>
      <path d="M227.543 115.033c2.779 0 3.797 1.551 3.797 3.311v4.196c0 .669.082 1.237.1 1.326h-2.362c-.017-.068-.087-.382-.087-.967-.45.727-1.273 1.207-2.412 1.207-1.881 0-2.97-1.238-2.97-2.604 0-1.519 1.122-2.38 2.538-2.586l2.017-.311c.464-.071.624-.296.624-.587 0-.497-.431-.926-1.26-.926-.919 0-1.416.618-1.469 1.252l-2.276-.466c.104-1.223 1.245-2.845 3.76-2.845zm-.325 7.173c.771 0 1.57-.376 1.57-1.702v-.384l-1.621.262c-.558.086-.969.345-.969.95 0 .445.291.874 1.02.874zm.325-7.819c-2.7 0-4.26 1.729-4.404 3.436-.027.327.193.622.515.688l.994.204c-1.065.557-1.686 1.547-1.686 2.787 0 1.615 1.242 3.25 3.617 3.25.753 0 1.421-.178 1.969-.517.118.17.315.278.53.278h2.362c.193 0 .377-.087.5-.237a.641.641 0 0 0 .133-.535c-.013-.076-.086-.593-.086-1.201v-4.196c0-2.478-1.662-3.957-4.444-3.957zm-.783 3.78c.102-.233.338-.429.768-.429.312 0 .544.086.6.216a.9472.9472 0 0 1-.061.012l-1.307.201zm.458 3.393c-.373 0-.373-.143-.373-.228 0-.132 0-.246.421-.311l.845-.136c-.089.469-.37.675-.893.675z" fill="#FFF" fill-rule="nonzero" mask="url(#af)"/>
    </g>
    <g>
      <mask id="ah" fill="#fff">
        <use xlink:href="#ag"/>
      </mask>
      <path d="M233.971 124.19a.3229.3229 0 0 1-.323-.323v-12.488c0-.179.144-.323.323-.323h2.622c.179 0 .323.144.323.323v12.488c0 .178-.144.323-.323.323h-2.622z" fill="#003851" fill-rule="nonzero" mask="url(#ah)"/>
    </g>
    <g>
      <mask id="aj" fill="#fff">
        <use xlink:href="#ai"/>
      </mask>
      <path d="M236.593 123.866h-2.622v-12.488h2.622v12.488zm0-13.134h-2.622c-.357 0-.647.29-.647.646v12.488c0 .357.29.647.647.647h2.622c.357 0 .646-.29.646-.647v-12.488c0-.356-.289-.646-.646-.646z" fill="#FFF" fill-rule="nonzero" mask="url(#aj)"/>
    </g>
    <g>
      <mask id="al" fill="#fff">
        <use xlink:href="#ak"/>
      </mask>
      <path d="M239.94 127.483a.325.325 0 0 1-.271-.146.3253.3253 0 0 1-.025-.307l1.885-4.313-3.537-7.285a.3237.3237 0 0 1 .016-.312c.06-.095.163-.152.275-.152h2.929c.127 0 .243.074.294.189l1.781 3.912 1.613-3.901c.05-.122.168-.2.299-.2h2.777c.11 0 .212.055.272.147.059.092.068.207.023.307l-5.281 11.869a.3222.3222 0 0 1-.295.192h-2.755z" fill="#003851" fill-rule="nonzero" mask="url(#al)"/>
    </g>
    <g>
      <mask id="an" fill="#fff">
        <use xlink:href="#am"/>
      </mask>
      <path d="M247.976 115.291l-5.281 11.868h-2.755l1.944-4.45-3.601-7.418h2.929l2.088 4.589 1.899-4.589h2.777zm0-.647h-2.777c-.262 0-.497.158-.598.399l-1.329 3.214-1.471-3.234a.6464.6464 0 0 0-.589-.379h-2.929c-.223 0-.43.115-.548.303a.649.649 0 0 0-.034.626l3.471 7.15-1.825 4.177c-.087.2-.067.431.052.613.119.183.323.293.541.293h2.755c.256 0 .487-.151.591-.384l5.281-11.869a.6475.6475 0 0 0-.049-.615.6468.6468 0 0 0-.542-.294zm0 1.293h.005-.005z" fill="#FFF" fill-rule="nonzero" mask="url(#an)"/>
    </g>
    <g>
      <mask id="ap" fill="#fff">
        <use xlink:href="#ao"/>
      </mask>
      <path d="M207.809 119.454c0 1.268-1.029 2.298-2.306 2.298-1.264 0-2.299-1.03-2.299-2.298 0-1.272 1.035-2.306 2.299-2.306 1.277 0 2.306 1.034 2.306 2.306" fill="#0794D2" fill-rule="nonzero" mask="url(#ap)"/>
    </g>
  </g>
</svg>