<svg xmlns="http://www.w3.org/2000/svg" viewBox="-768.333 1180.713 987.907 356.603">
  <g fill="#FFF">
    <path d="M-609.8222 1355.9876l8.9144-8.9144 43.5213 43.5213-8.9144 8.9144zM-630.2812 1376.5143l8.9145-8.9144 43.5212 43.5213-8.9144 8.9144z"/>
    <path d="M-456.95 1314.599l-14.584-14.584c-1.977-1.978-5.438-2.472-7.91-.989-8.652 5.438-19.528 4.202-26.697-2.966-7.169-7.169-8.405-18.292-2.966-26.697 1.483-2.472 1.236-5.685-.989-7.91l-14.584-14.584c-5.933-5.933-15.82-5.933-21.753 0l-136.203 136.203c-5.933 5.933-5.933 15.82 0 21.753l67.978 67.978c5.933 5.933 15.82 5.933 21.753 0l136.203-136.203c5.684-6.18 5.684-16.068-.248-22.001zm-9.146 12.607l-37.079 37.079-10.135-10.135-8.899 8.899 10.135 10.135-90.225 90.225c-.989.989-2.719.989-3.708 0l-67.978-67.978c-.989-.989-.989-2.719 0-3.708l90.225-90.225 10.135 10.135 8.899-8.899-10.135-10.135 37.079-37.079c.989-.989 2.719-.989 3.708 0l11.371 11.371c-5.685 12.854-2.966 27.686 7.169 37.82 10.135 10.135 25.214 12.854 37.82 7.169l11.371 11.371c1.483 1.236 1.483 2.966.247 3.955z"/>
    <path d="M-544.5312 1340.773l8.9145-8.9144 15.5562 15.5562-8.9145 8.9144zM-566.9418 1318.672l8.9144-8.9144 15.5562 15.5562-8.9144 8.9144z"/>
  </g>
  <path fill="#FFF" stroke="#FFF" stroke-width="6" stroke-miterlimit="10" d="M-217.15 1334.282v126.776c0 5.991 4.857 10.848 10.848 10.848 5.992 0 10.848-4.857 10.848-10.848v-127.094c13.7-4.887 22.807-17.909 22.695-32.454l-3.995-54.923c-.236-3.013-2.743-5.342-5.765-5.356h-1.906c-3.184 0-5.765 2.581-5.765 5.765v41.26c.088 2.156-1.589 3.975-3.745 4.063-2.156.088-3.975-1.589-4.063-3.745l-3.45-42.032c0-3.183-2.581-5.765-5.765-5.765s-5.765 2.581-5.765 5.765l-3.45 42.032c-.088 2.156-1.907 3.833-4.063 3.745-2.156-.088-3.833-1.907-3.745-4.063v-41.215c0-3.183-2.581-5.765-5.765-5.765h-1.679c-3.022.015-5.529 2.343-5.765 5.356l-3.995 54.923c.045 15.054 9.893 28.326 24.29 32.727zm-15.796-87.332c.048-.641.583-1.137 1.225-1.135h1.906c.677 0 1.225.549 1.225 1.225v41.215c.097 4.661 3.955 8.363 8.617 8.265 4.263-.089 7.791-3.342 8.223-7.584l3.45-42.032c0-1.271 2.36-1.271 2.451 0l3.45 42.032c.473 4.639 4.617 8.016 9.256 7.543 4.242-.433 7.496-3.96 7.584-8.223v-41.215c0-.677.549-1.225 1.225-1.225h1.906c.643-.001 1.178.493 1.225 1.135l3.949 54.469c.01 13.161-8.66 24.751-21.288 28.46a2.2692 2.2692 0 0 0-1.634 2.178v128.91c-.001 3.484-2.827 6.308-6.312 6.307-3.483-.001-6.306-2.824-6.307-6.307v-128.41a2.2681 2.2681 0 0 0-1.725-2.178c-13.239-3.241-22.588-15.057-22.695-28.687l4.269-54.743zm357.043-5.674c-18.701 0-33.907 20.789-33.907 46.39 0 19.972 9.441 37.765 23.194 43.984v129.545c0 5.916 4.796 10.712 10.712 10.712 5.916 0 10.712-4.796 10.712-10.712v-129.592c13.617-6.219 23.195-24.011 23.195-43.984 0-25.555-15.206-46.39-33.907-46.39l.001.047zm7.808 86.696c-.881.34-1.459 1.19-1.452 2.133v131.088c0 3.409-2.764 6.173-6.173 6.173s-6.173-2.764-6.173-6.173v-131.089a2.2693 2.2693 0 0 0-1.452-2.133c-12.8-4.948-21.742-21.515-21.742-40.352 0-23.058 13.163-41.851 29.368-41.851s29.368 18.746 29.368 41.851c-.184 18.838-9.126 35.406-21.744 40.353zm-173.62 143.934c63.7 0 115.338-51.638 115.338-115.338S21.985 1241.23-41.715 1241.23s-115.338 51.638-115.338 115.338c.075 63.669 51.67 115.264 115.338 115.338zm0-226.091c61.192 0 110.799 49.606 110.799 110.799 0 61.192-49.606 110.799-110.799 110.799s-110.799-49.606-110.799-110.799v-.045c.05-61.172 49.627-110.749 110.799-110.799v.045zm0 193.001c45.399 0 82.203-36.803 82.203-82.203s-36.803-82.203-82.203-82.203c-45.382 0-82.178 36.776-82.203 82.157.05 45.379 36.824 82.153 82.203 82.203v.046zm0-159.866c42.892 0 77.663 34.771 77.663 77.663 0 42.892-34.771 77.663-77.663 77.663s-77.663-34.771-77.663-77.663v-.045c.05-42.872 34.792-77.614 77.663-77.663v.045z"/>
  <path fill="#FFF" d="M-363.691 1328.645v40.377h38.83v10.309h-38.83v40.72h-10.996v-40.72h-38.83v-10.309h38.83v-40.377h10.996z"/>
</svg>
