<?xml version="1.0" encoding="utf-8"?>
<!-- Generator: Adobe Illustrator 17.0.0, SVG Export Plug-In . SVG Version: 6.00 Build 0)  -->
<!DOCTYPE svg PUBLIC "-//W3C//DTD SVG 1.1//EN" "http://www.w3.org/Graphics/SVG/1.1/DTD/svg11.dtd">
<svg version="1.1" id="Livello_1" xmlns="http://www.w3.org/2000/svg" xmlns:xlink="http://www.w3.org/1999/xlink" x="0px" y="0px"
	 width="136.422px" height="136.674px" viewBox="0 0 136.422 136.674" enable-background="new 0 0 136.422 136.674"
	 xml:space="preserve">
<g>
	<path fill="#BB3532" d="M114.572,107.918c0.883,1.646,1.343,3.531,1.217,5.514c-0.21,3.297-1.954,6.137-4.516,7.924
		c1.705,2.592,4.607,4.39,8.008,4.604c5.661,0.36,10.526-3.788,10.873-9.268c0.265-4.194-2.2-7.947-5.918-9.641
		c-1.797,1.162-3.987,1.787-6.312,1.638C116.729,108.615,115.611,108.342,114.572,107.918z"/>
	<path fill="#66A355" d="M104.271,98.978c0.263,0.017,0.519,0.07,0.779,0.102c-0.12-0.829-0.166-1.67-0.112-2.519
		c0.124-1.964,0.714-3.828,1.694-5.485c-3.197-6.562-7.819-16.52-12.315-27.861C87.361,45.676,79.402,21.37,79.652,2.623
		c-1.244,7.016-5.455,23.388-17.85,26.236c0,0,33.637,20.219,7.728,35.025c0,0,38.618,20.44,5.775,23.215
		c0,0,2.247,4.217,8.169,8.588c-3.506,2.631-8.803-0.866-16.322-23.103c0,0-20.83,36.02-34.772-11.975
		c0,0-7.556,14.269-28.609,12.711c22.234,5.983,65.346,24.982,86.774,34.694C92.431,102.443,97.983,98.58,104.271,98.978z
		 M108.57,88.591c0.188-0.188,0.373-0.38,0.574-0.558c2.597-2.29,5.958-3.428,9.461-3.208c2.255,0.142,4.377,0.843,6.216,2.014
		c2.087-3.905,3.259-7.912,2.924-12.589c0,0-35.848,18.458-5.614-22.561c0,0-42.178,4.912-10.526-34.391
		c0,0-17.714,2.719-28.786-17.297C81.187,27.429,99.352,69.31,108.57,88.591z M46.522,120.859c0,0,39.781-18.301,22.681,9.13
		c0,0,10.996,2.14,25.012-7.896c-0.811-0.734-1.483-1.581-2.016-2.514c-1.684-2.419-2.507-5.297-2.321-8.252
		c0.009-0.138,0.034-0.271,0.048-0.407C68.06,100.991,21.579,80.468,0,75.256c3.535,3.266,18.482,18.14,12.868,31.049
		C12.868,106.305,49.527,91.797,46.522,120.859z"/>
	<path fill="#BB3532" d="M107.57,96.725c-0.167,2.629,0.75,5.082,2.358,6.963c-1.644-1.178-3.639-1.941-5.823-2.079
		c-6.04-0.381-11.226,4.042-11.597,9.884c-0.369,5.846,4.219,10.897,10.258,11.278c6.03,0.383,11.224-4.048,11.594-9.895
		c0.178-2.831-0.818-5.472-2.572-7.493c1.528,1.084,3.373,1.777,5.395,1.904c5.654,0.361,10.521-3.789,10.867-9.266
		c0.347-5.48-3.957-10.208-9.612-10.565C112.783,87.099,107.916,91.246,107.57,96.725z"/>
</g>
<g>
</g>
<g>
</g>
<g>
</g>
<g>
</g>
<g>
</g>
<g>
</g>
</svg>
