<?xml version="1.0" encoding="utf-8"?>
<!-- Generator: Adobe Illustrator 17.0.0, SVG Export Plug-In . SVG Version: 6.00 Build 0)  -->
<!DOCTYPE svg PUBLIC "-//W3C//DTD SVG 1.1//EN" "http://www.w3.org/Graphics/SVG/1.1/DTD/svg11.dtd">
<svg version="1.1" id="Livello_1" xmlns="http://www.w3.org/2000/svg" xmlns:xlink="http://www.w3.org/1999/xlink" x="0px" y="0px"
	 width="168px" height="76.333px" viewBox="0 0 168 76.333" enable-background="new 0 0 168 76.333" xml:space="preserve">
<g>
	<circle fill="#BE4B94" stroke="#FFFFFF" stroke-width="12" stroke-miterlimit="10" cx="34.955" cy="34.839" r="26.774"/>
	<path fill="#BE4B94" stroke="#FFFFFF" stroke-width="12" stroke-miterlimit="10" d="M89.996,23.475l-3.436,0.497
		c-0.327,0.047-0.547,0.342-0.499,0.669l1.628,11.241c0.047,0.328,0.341,0.547,0.668,0.5l3.435-0.497
		c0.327-0.047,0.547-0.342,0.5-0.669c0,0-0.903-6.239-0.995-6.87c-0.189-1.309,0.581-1.754,1.212-1.846
		c0.607-0.088,1.499,0.141,1.686,1.426l0.995,6.87c0.047,0.328,0.342,0.547,0.668,0.5l3.436-0.497
		c0.327-0.047,0.547-0.342,0.5-0.669l-0.998-6.894c-0.186-1.285,0.584-1.731,1.215-1.822c0.608-0.088,1.5,0.141,1.686,1.426
		l0.995,6.87c0.048,0.328,0.342,0.547,0.669,0.5l3.436-0.498c0.303-0.044,0.523-0.338,0.476-0.666l-1.11-7.665
		c-0.416-2.875-1.912-4.304-5.02-3.854c-1.613,0.233-2.693,1.01-3.599,2.001c-0.77-0.867-1.939-1.199-3.669-0.948
		c-1.402,0.203-2.72,1.157-3.125,1.98l-0.085-0.584C90.618,23.648,90.323,23.428,89.996,23.475z"/>
	<path fill="#BE4B94" stroke="#FFFFFF" stroke-width="12" stroke-miterlimit="10" d="M109.127,33.719l3.471,0.047
		c0.33,0.004,0.594-0.252,0.599-0.583l0.13-9.991c0.005-0.33-0.252-0.594-0.583-0.598l-3.471-0.047
		c-0.307-0.004-0.593,0.252-0.598,0.582l-0.13,9.991C108.541,33.451,108.82,33.715,109.127,33.719z"/>
	<path fill="#BE4B94" stroke="#FFFFFF" stroke-width="12" stroke-miterlimit="10" d="M109.292,21.178l3.471,0.047
		c0.33,0.004,0.594-0.252,0.599-0.583l0.033-2.455c0.004-0.307-0.252-0.594-0.582-0.598l-3.471-0.047
		c-0.307-0.004-0.593,0.251-0.598,0.582l-0.034,2.455C108.705,20.91,108.985,21.174,109.292,21.178z"/>
	<path fill="#BE4B94" stroke="#FFFFFF" stroke-width="12" stroke-miterlimit="10" d="M127.369,30.495
		c0.197-0.659,0.034-0.803-0.556-0.811c-0.472-0.006-2.668-0.035-2.904-0.038c-0.496-0.007-0.591,0.04-0.759,0.25
		c-0.481,0.631-1.076,1.025-1.902,1.014c-1.441-0.019-2.582-1.238-2.562-2.725c0.019-1.487,1.192-2.677,2.633-2.658
		c0.85,0.011,1.411,0.42,1.898,1.111c0.163,0.214,0.255,0.31,0.61,0.315c0.377,0.005,2.692,0.035,3.117,0.041
		c0.52,0.007,0.711-0.179,0.507-0.82c-0.77-2.489-3.153-4.481-6.081-4.519c-3.707-0.049-6.862,2.839-6.909,6.475
		c-0.048,3.636,3.03,6.628,6.738,6.676C124.195,34.846,126.628,32.989,127.369,30.495z"/>
	<path fill="#BE4B94" stroke="#FFFFFF" stroke-width="12" stroke-miterlimit="10" d="M129.039,34.503l3.453,0.358
		c0.329,0.034,0.614-0.197,0.648-0.526l1.172-10.666c0.034-0.329-0.198-0.614-0.526-0.648l-3.453-0.358
		c-0.305-0.031-0.614,0.198-0.648,0.526l-1.172,10.666C128.479,34.183,128.734,34.471,129.039,34.503z"/>
	<path fill="#BE4B94" stroke="#FFFFFF" stroke-width="12" stroke-miterlimit="10" d="M130.474,21.3l3.453,0.358
		c0.328,0.034,0.614-0.198,0.648-0.526l0.253-2.443c0.031-0.306-0.198-0.614-0.526-0.648l-3.453-0.358
		c-0.305-0.031-0.614,0.197-0.648,0.527l-0.253,2.442C129.913,20.98,130.168,21.268,130.474,21.3z"/>
	<path fill="#BE4B94" stroke="#FFFFFF" stroke-width="12" stroke-miterlimit="10" d="M114.972,15.217
		c0.218,0.313,0.507,0.432,0.752,0.312c3.526-1.731,7.681-1.61,11.115,0.321c0.202,0.113,0.435,0.109,0.608-0.013l0.896-0.627
		c0.158-0.11,0.245-0.285,0.24-0.48c-0.005-0.19-0.1-0.355-0.259-0.454c-2.063-1.276-4.412-1.975-6.786-2.084
		c-2.352-0.108-4.729,0.364-6.879,1.427c-0.154,0.076-0.265,0.213-0.307,0.377c-0.041,0.158-0.011,0.319,0.081,0.451L114.972,15.217
		z"/>
	<path fill="#BE4B94" stroke="#FFFFFF" stroke-width="12" stroke-miterlimit="10" d="M116.273,17.523
		c-0.411,0.203-0.554,0.722-0.291,1.098l0.384,0.548c0.264,0.378,0.651,0.491,0.971,0.334c2.452-1.203,5.306-1.075,7.609,0.22
		c0.253,0.142,0.563,0.139,0.801-0.027l0.64-0.448c0.436-0.305,0.423-0.962-0.029-1.242
		C123.358,16.152,119.533,15.911,116.273,17.523z"/>
	<path fill="#BE4B94" stroke="#FFFFFF" stroke-width="12" stroke-miterlimit="10" d="M69.668,33.088
		c0.302,0.057,3.759,0.708,3.759,0.708c0.696,0.131,0.856-0.079,1.202-0.639c0.068-0.107,0.318-0.541,0.69-1.24l5.013,0.944
		c0.092,0.786,0.168,1.281,0.192,1.406c0.142,0.652,0.191,0.901,0.887,1.032c0,0,3.458,0.651,3.782,0.712
		c0.395,0.074,0.66-0.188,0.571-0.734c-0.109-0.531-2.428-14.467-2.685-15.792c1.102-1.686,2.668,1.345,4.904,2.511
		c2.283,1.19,2.98-0.609,2.665-2.449c-0.383-2.24-3.815-2.407-5.973-2.927c-2.157-0.52-3.116,1.88-3.116,1.88
		s0.001,0.007,0.001,0.008l-2.406-0.453c-0.101-0.274-0.95-2.396-2.993-2.025c-2.184,0.396-5.62,0.368-6.13,2.582
		c-0.419,1.819,0.173,3.655,2.521,2.597c2.199-0.991,3.885-3.732,4.906-2.44c-1.346,2.199-7.768,12.959-8.054,13.43
		C69.099,32.669,69.274,33.014,69.668,33.088z"/>
	
		<ellipse transform="matrix(0.9779 -0.2089 0.2089 0.9779 -1.9306 31.5235)" fill="#BE4B94" stroke="#FFFFFF" stroke-width="12" stroke-miterlimit="10" cx="148.29" cy="24.903" rx="12.168" ry="11.251"/>
	<path fill="#BE4B94" stroke="#FFFFFF" stroke-width="12" stroke-miterlimit="10" d="M138.136,58.424
		c-1.241-1.75-2.864-0.726-5.061-0.012c-2.519,0.819-5.307-1.163-5.442-5.309c-0.031-0.952-0.052-1.807-0.063-2.603
		c1.178,1.169,3.614,2.125,5.383,1.944c3.933-0.402,7.035-3.236,6.997-7.776c-0.034-4.114-3.213-7.28-7.161-7.089
		c-1.441,0.07-3.318,1.069-3.84,1.897l-0.032-0.667c-0.018-0.373-0.353-0.652-0.7-0.635l-3.949,0.191
		c-0.193,0.009-0.357,0.113-0.469,0.264l-0.009-0.001c0,0-0.005,0.015-0.014,0.04c-0.059,0.093-0.096,0.198-0.104,0.316
		c-0.64,1.991-3.584,12.049-0.31,19.439c2.496,5.636,8.267,5.71,11.06,5.063C136.545,62.993,139.63,60.531,138.136,58.424z
		 M131.842,41.797c1.521-0.073,2.766,1.338,2.852,3.125c0.086,1.788-1.018,3.285-2.539,3.358c-1.547,0.075-2.844-1.306-2.931-3.094
		C129.138,43.399,130.294,41.872,131.842,41.797z"/>
	<path fill="#BE4B94" stroke="#FFFFFF" stroke-width="12" stroke-miterlimit="10" d="M82.019,38.57L70.86,36.914
		c-0.39-0.058-0.742,0.203-0.795,0.565l-0.508,3.423c-0.058,0.389,0.203,0.741,0.593,0.799l4.397,0.652c0,0-6.07,5.64-6.274,5.866
		c-0.332,0.321-0.533,0.717-0.595,1.135l-0.214,1.447c-0.058,0.39,0.203,0.741,0.592,0.799L80.187,53.4
		c0.389,0.058,0.741-0.203,0.799-0.592l0.504-3.395c0.058-0.389-0.204-0.74-0.593-0.799l-5.093-0.756c0,0,5.242-4.854,5.899-5.638
		c0.42-0.535,0.601-0.792,0.667-1.237l0.244-1.642C82.668,38.979,82.408,38.627,82.019,38.57z"/>
	<path fill="#BE4B94" stroke="#FFFFFF" stroke-width="12" stroke-miterlimit="10" d="M96.753,42.991
		c-0.509-3.167-3.623-4.322-6.678-4.181c-2.692,0.124-4.824,1.155-5.683,1.662c-0.304,0.143-0.288,0.506-0.201,0.709
		c0.087,0.204,0.924,2.033,1.065,2.286c0.114,0.229,0.378,0.32,0.658,0.203c0.737-0.345,2.185-0.982,3.739-1.053
		c1.683-0.078,2.012,0.867,2.073,1.643c-1.059,0.101-2.893,0.262-4.179,0.503c-1.979,0.402-4.062,1.924-3.926,4.902
		c0.159,3.469,3.518,3.729,4.32,3.693c1.449-0.067,3.241-0.615,4.126-1.668l0.024,0.517c0.016,0.363,0.314,0.634,0.676,0.618
		l1.554-0.071l2.252-0.103c0.362-0.017,0.634-0.314,0.617-0.677l-0.384-8.362C96.798,43.404,96.789,43.197,96.753,42.991z
		 M90.216,49.776c-1.657,0.076-2.043-1.566-1.094-2.363c0.748-0.656,2.721-0.643,2.721-0.643l0.072,1.579
		C91.914,48.35,91.846,49.701,90.216,49.776z"/>
	<path fill="#BE4B94" stroke="#FFFFFF" stroke-width="12" stroke-miterlimit="10" d="M148.026,39.468
		c-2.679-0.29-4.944,0.404-5.87,0.773c-0.323,0.095-0.362,0.456-0.307,0.67c0.055,0.215,0.602,2.151,0.703,2.422
		c0.078,0.243,0.324,0.374,0.619,0.302c0.781-0.229,2.31-0.637,3.856-0.47c1.675,0.181,1.855,1.165,1.798,1.94
		c-1.062-0.063-2.9-0.183-4.207-0.142c-2.018,0.095-4.309,1.281-4.629,4.244c-0.373,3.452,2.906,4.223,3.705,4.31
		c1.443,0.156,3.297-0.113,4.333-1.017l-0.056,0.515c-0.039,0.361,0.214,0.675,0.574,0.714l1.546,0.167l2.242,0.242
		c0.36,0.039,0.675-0.214,0.714-0.575l0.899-8.322c0.022-0.206,0.044-0.412,0.041-0.621
		C153.967,41.413,151.066,39.796,148.026,39.468z M148.385,49.177c0,0-0.274,1.326-1.897,1.15c-1.649-0.178-1.78-1.86-0.72-2.502
		c0.84-0.535,2.787-0.22,2.787-0.22L148.385,49.177z"/>
	<path fill="#BE4B94" stroke="#FFFFFF" stroke-width="12" stroke-miterlimit="10" d="M116.721,38.719
		c-1.782-0.143-3.128,0.425-4.339,1.264c-0.613-1.115-1.783-1.755-3.695-1.908c-1.55-0.124-3.192,0.576-3.826,1.357l0.052-0.646
		c0.029-0.361-0.232-0.669-0.594-0.697l-3.797-0.305c-0.362-0.029-0.668,0.233-0.698,0.594l-0.996,12.425
		c-0.03,0.362,0.232,0.669,0.593,0.698l3.798,0.305c0.361,0.029,0.668-0.232,0.698-0.594c0,0,0.553-6.897,0.609-7.595
		c0.116-1.446,1.049-1.735,1.746-1.68c0.671,0.054,1.57,0.516,1.457,1.937l-0.609,7.594c-0.029,0.362,0.232,0.669,0.594,0.698
		l3.798,0.305c0.361,0.029,0.668-0.232,0.698-0.594l0.611-7.62c0.114-1.421,1.047-1.71,1.744-1.654
		c0.672,0.054,1.571,0.516,1.457,1.937l-0.609,7.595c-0.029,0.362,0.232,0.669,0.594,0.698l3.797,0.305
		c0.336,0.027,0.643-0.234,0.672-0.596l0.679-8.473C121.409,40.889,120.156,38.995,116.721,38.719z"/>
	<path fill="#BE4B94" stroke="#FFFFFF" stroke-width="12" stroke-miterlimit="10" d="M146.415,56.531
		c-0.134-0.082-0.289-0.102-0.437-0.054l-0.858,0.273c-0.349,0.111-0.541,0.341-0.5,0.6c0.578,3.725-0.72,7.498-3.47,10.092
		c-0.161,0.153-0.224,0.368-0.162,0.561l0.318,1c0.056,0.176,0.192,0.306,0.372,0.357c0.176,0.049,0.354,0.01,0.49-0.107
		c1.759-1.526,3.07-3.479,3.848-5.623c0.771-2.124,1.017-4.437,0.658-6.711C146.647,56.758,146.553,56.616,146.415,56.531z"/>
	<path fill="#BE4B94" stroke="#FFFFFF" stroke-width="12" stroke-miterlimit="10" d="M142.635,57.283
		c-0.069-0.435-0.503-0.714-0.923-0.58l-0.613,0.195c-0.422,0.134-0.636,0.456-0.583,0.794c0.402,2.591-0.531,5.169-2.376,6.909
		c-0.203,0.192-0.289,0.476-0.204,0.742l0.227,0.714c0.155,0.486,0.76,0.662,1.146,0.328
		C141.867,64.167,143.18,60.73,142.635,57.283z"/>
</g>
<path fill="#FBD648" d="M61.729,34.914c0,14.787-11.987,26.774-26.774,26.774c-14.787,0-26.774-11.987-26.774-26.774
	S20.168,8.14,34.955,8.14C49.742,8.14,61.729,20.127,61.729,34.914"/>
<g>
	<defs>
		<path id="SVGID_1_" d="M8.181,34.914c0,14.787,11.987,26.774,26.774,26.774c14.787,0,26.774-11.987,26.774-26.774
			c0-14.787-11.987-26.774-26.774-26.774C20.168,8.14,8.181,20.127,8.181,34.914"/>
	</defs>
	<clipPath id="SVGID_2_">
		<use xlink:href="#SVGID_1_"  overflow="visible"/>
	</clipPath>
	<path clip-path="url(#SVGID_2_)" fill="#BE4B94" d="M46.5,39.501l8.237-8.253c0.884-0.884,0.884-2.317,0-3.201
		c-0.884-0.884-2.317-0.884-3.201,0l-7.202,7.219c-0.003,0.004-0.006,0.008-0.01,0.012c-0.2,0.2-0.524,0.2-0.725,0
		c-0.199-0.2-0.2-0.522-0.002-0.722l-0.001-0.001l9.47-9.471c0.884-0.884,0.884-2.317,0-3.201c-0.884-0.884-2.317-0.884-3.201,0
		l-9.471,9.47l-0.001-0.001c-0.2,0.198-0.523,0.197-0.722-0.002c-0.2-0.2-0.2-0.524,0-0.725c0.004-0.004,0.009-0.007,0.013-0.01
		l10.672-10.672c0.884-0.884,0.884-2.317,0-3.201c-0.884-0.884-2.317-0.884-3.201,0L36.471,27.425v0l-0.002,0.002l0,0
		c-0.2,0.198-0.523,0.198-0.722-0.002c-0.2-0.199-0.2-0.522-0.002-0.722l0,0l9.162-9.122c0.884-0.884,0.884-2.317,0-3.201
		c-0.884-0.884-2.317-0.884-3.201,0L31.522,24.523l-0.004-0.004l-4.394,4.314c0,0-1.436,1.266-1.955,0.709
		c-0.547-0.588,0.045-1.286,0.914-2.122c0.924-0.889,1.572-1.479,3.653-3.87c1.526-1.753,1.33-3.734,0.08-4.724
		c-0.884-0.7-2.472-0.267-3.488,0.91c-1.365,1.583-3.256,3.672-7.074,7.566c-5.588,5.698-3.098,10.953-2.379,12.226
		c0.719,1.273-0.055,2.379-0.055,2.379l-8.409,8.409l11.562,11.562l8.52-8.519c0,0,4.149,0.498,6.694-2.047
		C37.732,48.767,46.5,39.501,46.5,39.501"/>
	<path clip-path="url(#SVGID_2_)" fill="#FFFFFF" d="M36.954,31.202c-1.218-0.613-2.586-0.687-3.753-0.203
		c-0.214,0.089-0.419,0.195-0.614,0.316c-0.577-0.528-1.242-0.928-1.977-1.176c-1.345-0.455-2.766-0.336-3.897,0.328
		c-0.338,0.198-0.648,0.44-0.922,0.72c-0.77,0.786-1.208,1.81-1.302,2.927c-1.115,0.117-2.129,0.576-2.899,1.363
		c-0.274,0.279-0.509,0.594-0.7,0.936c-0.64,1.144-0.73,2.567-0.247,3.903c0.264,0.729,0.677,1.387,1.217,1.952
		c-0.117,0.197-0.218,0.404-0.302,0.621c-0.459,1.178-0.357,2.544,0.281,3.748c0.771,1.455,2.19,2.478,3.997,2.878
		c0.499,0.111,0.961,0.162,1.385,0.168c0.01,0.01,0.02,0.02,0.03,0.03c1.981,1.94,3.112,3.222,5.687,2.983l11.031,10.805
		l4.589-2.804l0.786-0.803l8.215-3.677L43.241,42.173c0.186-2.58-1.119-3.684-3.1-5.624c-0.01-0.01-0.02-0.019-0.03-0.029
		c-0.014-0.424-0.075-0.884-0.196-1.381C39.476,33.341,38.425,31.943,36.954,31.202"/>
	<path clip-path="url(#SVGID_2_)" fill="#BE4B94" d="M35.908,38.596c0.568-0.132,1.794-0.856,1.266-2.983
		c-0.529-2.128-2.221-2.782-3.195-2.383c-0.974,0.399-1.397,1.688-0.851,3.226C33.674,37.994,35.003,38.805,35.908,38.596"/>
	<path clip-path="url(#SVGID_2_)" fill="#BE4B94" d="M30.685,38.014c0.595-0.229,1.813-1.198,0.918-3.421
		c-0.895-2.224-2.826-2.676-3.82-2.096c-0.994,0.58-1.256,2.039-0.432,3.622C28.176,37.701,29.737,38.378,30.685,38.014"/>
	<path clip-path="url(#SVGID_2_)" fill="#BE4B94" d="M29.208,45.437c-0.12,0.571-0.818,1.812-2.956,1.327
		c-2.138-0.485-2.828-2.163-2.449-3.145c0.379-0.982,1.659-1.432,3.208-0.918C28.56,43.216,29.399,44.527,29.208,45.437"/>
	<path clip-path="url(#SVGID_2_)" fill="#BE4B94" d="M28.518,40.227c-0.216,0.6-1.16,1.838-3.402,0.989
		c-2.241-0.848-2.734-2.77-2.175-3.776c0.559-1.006,2.013-1.299,3.612-0.507C28.153,37.724,28.863,39.271,28.518,40.227"/>
	<path clip-path="url(#SVGID_2_)" fill="#BE4B94" d="M36.379,39.64c-2.955-0.412-4.128,0.066-5.007,0.99
		c-1.128,1.187-1.398,2.618-0.933,4.883c0.599,2.923,1.759,5.101,3.942,4.166c1.696-0.726,1.92-2.761,1.989-3.794
		c0.012-0.175,0.149-0.316,0.324-0.331c1.031-0.091,3.061-0.357,3.752-2.067C41.335,41.286,39.334,40.052,36.379,39.64"/>
</g>
<g>
	<path fill="#4C94CD" d="M85.193,36.085c-0.325-0.061-3.782-0.712-3.782-0.712c-0.696-0.131-0.745-0.38-0.887-1.032
		c-0.024-0.124-0.1-0.619-0.192-1.406l-5.013-0.944c-0.372,0.699-0.622,1.133-0.69,1.24c-0.346,0.56-0.506,0.77-1.202,0.639
		c0,0-3.457-0.651-3.759-0.708c-0.394-0.074-0.57-0.419-0.265-0.891c0.314-0.518,8.035-13.457,8.295-13.816
		c0.236-0.364,0.411-0.523,0.828-0.445l3.899,0.734c0.418,0.079,0.522,0.29,0.633,0.72c0.112,0.429,2.591,15.337,2.704,15.887
		C85.853,35.897,85.588,36.16,85.193,36.085 M79.807,28.704c-0.159-1.327-0.327-2.729-0.505-4.084
		c-0.635,1.202-1.301,2.446-1.955,3.621L79.807,28.704z"/>
	<path fill="#4C94CD" d="M106.163,25.456l1.11,7.665c0.047,0.327-0.173,0.622-0.476,0.666l-3.436,0.498
		c-0.327,0.047-0.621-0.172-0.669-0.5l-0.995-6.87c-0.186-1.286-1.078-1.514-1.686-1.426c-0.631,0.091-1.402,0.537-1.215,1.822
		l0.998,6.894c0.048,0.327-0.173,0.622-0.5,0.669l-3.436,0.497c-0.326,0.048-0.621-0.172-0.668-0.5L94.196,28
		c-0.186-1.286-1.079-1.514-1.686-1.426c-0.631,0.092-1.402,0.537-1.212,1.846c0.092,0.631,0.995,6.87,0.995,6.87
		c0.048,0.327-0.172,0.622-0.5,0.669l-3.435,0.497c-0.327,0.048-0.621-0.172-0.668-0.5l-1.628-11.241
		c-0.048-0.327,0.172-0.621,0.499-0.669l3.436-0.497c0.327-0.048,0.622,0.173,0.669,0.5l0.085,0.584
		c0.405-0.822,1.723-1.776,3.125-1.98c1.729-0.251,2.899,0.082,3.669,0.948c0.906-0.99,1.987-1.767,3.599-2.001
		C104.251,21.152,105.747,22.582,106.163,25.456"/>
	<path fill="#4C94CD" d="M113.395,18.262l-0.033,2.455c-0.005,0.33-0.268,0.587-0.599,0.582l-3.471-0.047
		c-0.307-0.004-0.587-0.268-0.582-0.599l0.034-2.455c0.005-0.331,0.291-0.586,0.598-0.582l3.471,0.047
		C113.142,17.668,113.399,17.955,113.395,18.262 M113.326,23.267l-0.13,9.991c-0.005,0.331-0.268,0.587-0.599,0.582l-3.471-0.047
		c-0.307-0.004-0.586-0.268-0.581-0.598l0.13-9.991c0.005-0.33,0.291-0.586,0.598-0.582l3.471,0.047
		C113.074,22.674,113.331,22.937,113.326,23.267"/>
	<path fill="#4C94CD" d="M123.149,29.972c0.168-0.21,0.263-0.257,0.759-0.25c0.236,0.003,2.432,0.032,2.904,0.038
		c0.59,0.008,0.754,0.152,0.556,0.811c-0.741,2.493-3.174,4.35-6.172,4.311c-3.707-0.048-6.785-3.04-6.738-6.676
		c0.048-3.636,3.202-6.524,6.909-6.475c2.928,0.038,5.311,2.03,6.081,4.519c0.204,0.64,0.013,0.827-0.507,0.82
		c-0.425-0.005-2.739-0.036-3.117-0.041c-0.355-0.005-0.448-0.1-0.61-0.315c-0.487-0.691-1.048-1.1-1.898-1.111
		c-1.44-0.019-2.613,1.17-2.633,2.658c-0.02,1.488,1.122,2.707,2.562,2.725C122.073,30.996,122.669,30.603,123.149,29.972"/>
	<path fill="#4C94CD" d="M134.828,18.764l-0.253,2.443c-0.034,0.329-0.32,0.56-0.648,0.526l-3.453-0.358
		c-0.305-0.032-0.56-0.32-0.526-0.648l0.253-2.442c0.034-0.329,0.342-0.558,0.648-0.527l3.453,0.358
		C134.63,18.15,134.859,18.458,134.828,18.764 M134.311,23.743l-1.172,10.666c-0.034,0.329-0.319,0.56-0.648,0.526l-3.453-0.358
		c-0.305-0.032-0.56-0.319-0.526-0.648l1.172-10.666c0.034-0.329,0.343-0.558,0.648-0.526l3.453,0.358
		C134.113,23.129,134.345,23.414,134.311,23.743"/>
	<path fill="#BE4B94" d="M128.583,14.804c-0.005-0.19-0.1-0.355-0.259-0.454c-2.063-1.276-4.412-1.975-6.786-2.084
		c-2.352-0.108-4.729,0.364-6.879,1.427c-0.154,0.076-0.265,0.213-0.308,0.377c-0.041,0.158-0.011,0.319,0.081,0.452l0.538,0.769
		c0.218,0.313,0.507,0.432,0.752,0.312c3.526-1.731,7.681-1.61,11.115,0.321c0.202,0.113,0.435,0.109,0.608-0.013l0.896-0.627
		C128.501,15.174,128.588,14.999,128.583,14.804"/>
	<path fill="#BE4B94" d="M116.366,19.244l-0.384-0.548c-0.263-0.376-0.12-0.895,0.291-1.098c3.259-1.612,7.085-1.371,10.085,0.484
		c0.452,0.28,0.465,0.937,0.029,1.242l-0.64,0.448c-0.238,0.167-0.548,0.169-0.801,0.027c-2.303-1.296-5.157-1.424-7.609-0.22
		C117.017,19.736,116.631,19.622,116.366,19.244"/>
	<path fill="#4C94CD" d="M79.165,18.158c0,0-0.82-2.451-3.004-2.055c-2.184,0.396-5.62,0.368-6.13,2.582
		c-0.419,1.819,0.173,3.655,2.521,2.597c2.347-1.057,4.11-4.108,5.103-2.124C78.648,21.142,79.165,18.158,79.165,18.158"/>
	<path fill="#4C94CD" d="M81.559,18.573c0,0,0.959-2.4,3.116-1.88c2.157,0.52,5.59,0.688,5.973,2.927
		c0.315,1.84-0.381,3.639-2.665,2.449c-2.283-1.189-3.869-4.336-4.974-2.412C81.905,21.582,81.559,18.573,81.559,18.573"/>
	<path fill="#E88F3D" d="M160.189,22.436c1.298,6.077-2.978,12.141-9.55,13.544c-6.571,1.404-12.951-2.385-14.249-8.461
		c-1.298-6.077,2.977-12.14,9.549-13.544C152.512,12.571,158.892,16.359,160.189,22.436"/>
	<path fill="#FFFFFF" d="M150.404,31.244c-0.303,0.121-0.794,0.27-1.825,0.331c-1.529,0.09-2.061-0.758-2.198-1.043
		c-0.748,0.767-1.77,1.276-2.921,1.343c-2.542,0.149-4.505-1.891-4.66-4.536c-0.155-2.645,1.559-4.883,4.101-5.032
		c0.945-0.055,1.82,0.187,2.589,0.642l-0.251-4.292c-0.014-0.241,0.164-0.441,0.404-0.455l2.525-0.148
		c0.24-0.014,0.441,0.164,0.454,0.404l0.552,9.445c0.047,0.807,0.554,0.64,0.846,0.623c0.343-0.037,0.403,0.114,0.452,0.353
		c0.029,0.205,0.2,1.35,0.254,1.691C150.8,30.945,150.673,31.142,150.404,31.244 M145.723,26.95c-0.067-1.151-0.93-2.048-1.926-1.99
		c-0.979,0.057-1.68,1.046-1.612,2.197c0.067,1.151,0.877,2.034,1.856,1.977C145.037,29.075,145.79,28.101,145.723,26.95"/>
	<path fill="#FFFFFF" d="M154.514,19.457l0.105,1.787c0.014,0.24-0.164,0.441-0.404,0.454l-2.525,0.148
		c-0.223,0.013-0.441-0.164-0.454-0.404l-0.105-1.787c-0.014-0.24,0.181-0.441,0.404-0.454l2.525-0.148
		C154.3,19.039,154.501,19.234,154.514,19.457 M154.727,23.099l0.43,7.361c0.014,0.24-0.164,0.44-0.404,0.454l-2.525,0.148
		c-0.223,0.013-0.44-0.164-0.454-0.404l-0.431-7.36c-0.014-0.24,0.181-0.441,0.405-0.454l2.525-0.148
		C154.513,22.68,154.713,22.858,154.727,23.099"/>
	<path fill="#90C055" d="M139.95,44.743c-0.035-4.114-3.213-7.28-7.161-7.089c-1.441,0.07-3.318,1.069-3.84,1.897l-0.032-0.667
		c-0.018-0.373-0.353-0.652-0.7-0.635l-3.949,0.191c-0.347,0.017-0.625,0.325-0.608,0.698l0.424,8.791l3.319,2.489
		c1.106,1.24,3.701,2.29,5.55,2.101C136.886,52.117,139.989,49.283,139.95,44.743 M132.155,48.355
		c-1.547,0.075-2.844-1.306-2.931-3.094c-0.086-1.788,1.07-3.314,2.618-3.389c1.521-0.073,2.766,1.338,2.852,3.125
		C134.78,46.784,133.676,48.282,132.155,48.355"/>
	<path fill="#90C055" d="M123.79,38.702c0,0-4.077,11.558-0.428,19.795c2.496,5.636,8.267,5.71,11.06,5.063
		c2.123-0.492,5.208-2.954,3.714-5.061c-1.241-1.75-2.864-0.726-5.061-0.012c-2.519,0.819-5.307-1.163-5.442-5.309
		c-0.206-6.333-0.031-8.74,1.316-13.628L123.79,38.702z"/>
	<path fill="#90C055" d="M81.49,49.487l-0.504,3.395c-0.058,0.39-0.41,0.65-0.799,0.592l-12.133-1.801
		c-0.389-0.058-0.65-0.409-0.592-0.799l0.214-1.447c0.062-0.418,0.263-0.814,0.595-1.135c0.204-0.226,6.274-5.866,6.274-5.866
		l-4.397-0.652c-0.389-0.058-0.65-0.41-0.593-0.799l0.508-3.423c0.053-0.362,0.405-0.623,0.795-0.565l11.159,1.656
		c0.389,0.058,0.649,0.41,0.596,0.771l-0.244,1.642c-0.066,0.445-0.246,0.703-0.667,1.237c-0.657,0.784-5.899,5.638-5.899,5.638
		l5.093,0.756C81.287,48.747,81.548,49.098,81.49,49.487"/>
	<path fill="#90C055" d="M96.807,43.685l0.384,8.362c0.017,0.363-0.255,0.66-0.617,0.677l-2.252,0.103l-1.554,0.071
		c-0.362,0.017-0.66-0.255-0.676-0.618l-0.024-0.517c-0.885,1.052-2.676,1.601-4.126,1.668c-0.802,0.037-4.161-0.224-4.32-3.693
		c-0.137-2.977,1.946-4.5,3.926-4.902c1.286-0.241,3.12-0.403,4.179-0.503c-0.061-0.775-0.39-1.72-2.073-1.643
		c-1.553,0.071-3.002,0.708-3.739,1.053c-0.28,0.117-0.544,0.025-0.658-0.203c-0.141-0.253-0.978-2.082-1.065-2.286
		c-0.087-0.204-0.104-0.566,0.201-0.709c0.859-0.507,2.991-1.538,5.683-1.662c3.055-0.14,6.169,1.014,6.678,4.181
		C96.789,43.271,96.798,43.478,96.807,43.685 M91.914,48.424l-0.072-1.579c0,0-1.973-0.013-2.721,0.643
		c-0.949,0.796-0.562,2.439,1.094,2.363C91.846,49.776,91.914,48.424,91.914,48.424"/>
	<path fill="#90C055" d="M153.945,45.316l-0.899,8.322c-0.039,0.361-0.354,0.614-0.714,0.575l-2.242-0.242l-1.546-0.167
		c-0.36-0.039-0.613-0.353-0.574-0.714l0.056-0.515c-1.036,0.904-2.89,1.173-4.333,1.017c-0.799-0.086-4.078-0.857-3.705-4.31
		c0.32-2.963,2.611-4.15,4.629-4.244c1.308-0.041,3.145,0.079,4.207,0.142c0.057-0.776-0.123-1.759-1.798-1.94
		c-1.546-0.167-3.076,0.241-3.856,0.47c-0.294,0.072-0.541-0.059-0.619-0.302c-0.101-0.271-0.648-2.207-0.703-2.422
		c-0.055-0.214-0.016-0.575,0.307-0.67c0.926-0.369,3.191-1.063,5.87-0.773c3.041,0.328,5.941,1.945,5.96,5.153
		C153.989,44.904,153.967,45.11,153.945,45.316 M148.385,49.251l0.17-1.572c0,0-1.947-0.314-2.787,0.22
		c-1.06,0.641-0.929,2.324,0.72,2.502C148.111,50.577,148.385,49.251,148.385,49.251"/>
	<path fill="#90C055" d="M121.154,44.141l-0.679,8.473c-0.029,0.362-0.336,0.623-0.672,0.596l-3.797-0.305
		c-0.361-0.029-0.623-0.336-0.594-0.698l0.609-7.595c0.114-1.421-0.785-1.883-1.457-1.937c-0.697-0.056-1.63,0.233-1.744,1.654
		l-0.611,7.62c-0.029,0.362-0.336,0.623-0.698,0.594l-3.798-0.305c-0.361-0.029-0.622-0.336-0.594-0.698l0.609-7.594
		c0.114-1.421-0.785-1.883-1.457-1.937c-0.698-0.056-1.631,0.233-1.747,1.68c-0.056,0.698-0.609,7.595-0.609,7.595
		c-0.029,0.362-0.336,0.623-0.698,0.594l-3.798-0.305c-0.361-0.029-0.623-0.335-0.593-0.698l0.996-12.425
		c0.029-0.361,0.336-0.623,0.698-0.594l3.797,0.305c0.362,0.029,0.623,0.336,0.594,0.697l-0.052,0.646
		c0.634-0.781,2.276-1.481,3.826-1.357c1.912,0.154,3.082,0.793,3.695,1.908c1.211-0.839,2.557-1.407,4.339-1.264
		C120.156,39.069,121.409,40.964,121.154,44.141"/>
	<path fill="#BE4B94" d="M141.677,69.435c0.176,0.049,0.354,0.01,0.49-0.107c1.759-1.526,3.07-3.478,3.848-5.623
		c0.771-2.124,1.017-4.437,0.658-6.711c-0.026-0.162-0.12-0.304-0.258-0.389c-0.134-0.082-0.289-0.102-0.437-0.054l-0.858,0.273
		c-0.349,0.111-0.541,0.341-0.5,0.6c0.578,3.725-0.72,7.498-3.47,10.092c-0.161,0.153-0.224,0.368-0.162,0.561l0.318,1
		C141.362,69.254,141.497,69.384,141.677,69.435"/>
	<path fill="#BE4B94" d="M141.1,56.973l0.613-0.195c0.42-0.133,0.854,0.145,0.923,0.58c0.545,3.447-0.768,6.883-3.325,9.102
		c-0.386,0.334-0.992,0.158-1.146-0.328l-0.227-0.714c-0.085-0.266,0.001-0.55,0.204-0.742c1.845-1.74,2.778-4.318,2.376-6.909
		C140.464,57.429,140.678,57.107,141.1,56.973"/>
</g>
<g>
</g>
<g>
</g>
<g>
</g>
<g>
</g>
<g>
</g>
<g>
</g>
</svg>
