<?xml version="1.0" encoding="utf-8"?>
<!-- Generator: Adobe Illustrator 17.0.0, SVG Export Plug-In . SVG Version: 6.00 Build 0)  -->
<!DOCTYPE svg PUBLIC "-//W3C//DTD SVG 1.1//EN" "http://www.w3.org/Graphics/SVG/1.1/DTD/svg11.dtd">
<svg version="1.1" id="Livello_1" xmlns="http://www.w3.org/2000/svg" xmlns:xlink="http://www.w3.org/1999/xlink" x="0px" y="0px"
	 width="987.907px" height="356.603px" viewBox="0 0 987.907 356.603" enable-background="new 0 0 987.907 356.603"
	 xml:space="preserve">
<g>
	
		<rect x="192.184" y="161.824" transform="matrix(0.7071 -0.7071 0.7071 0.7071 -78.0512 196.7622)" fill="#FFFFFF" width="12.607" height="61.547"/>
	
		<rect x="171.725" y="182.351" transform="matrix(0.7071 -0.7071 0.7071 0.7071 -98.5584 188.3081)" fill="#FFFFFF" width="12.607" height="61.547"/>
	<path fill="#FFFFFF" d="M325.136,133.892l-14.584-14.584c-1.977-1.978-5.438-2.472-7.91-0.989
		c-8.652,5.438-19.528,4.202-26.697-2.966c-7.169-7.169-8.405-18.292-2.966-26.697c1.483-2.472,1.236-5.685-0.989-7.91
		l-14.584-14.584c-5.933-5.933-15.82-5.933-21.753,0L99.45,202.365c-5.933,5.933-5.933,15.82,0,21.753l67.978,67.978
		c5.933,5.933,15.82,5.933,21.753,0l136.203-136.203C331.068,149.713,331.068,139.825,325.136,133.892z M315.99,146.499
		l-37.079,37.079l-10.135-10.135l-8.899,8.899l10.135,10.135l-90.225,90.225c-0.989,0.989-2.719,0.989-3.708,0l-67.978-67.978
		c-0.989-0.989-0.989-2.719,0-3.708l90.225-90.225l10.135,10.135l8.899-8.899l-10.135-10.135l37.079-37.079
		c0.989-0.989,2.719-0.989,3.708,0l11.371,11.371c-5.685,12.854-2.966,27.686,7.169,37.82c10.135,10.135,25.214,12.854,37.82,7.169
		l11.371,11.371C317.226,143.78,317.226,145.51,315.99,146.499z"/>
	
		<rect x="243.492" y="152.4" transform="matrix(0.7071 -0.7071 0.7071 0.7071 -42.3778 224.4908)" fill="#FFFFFF" width="12.607" height="22"/>
	
		<rect x="221.081" y="130.299" transform="matrix(0.7071 -0.7071 0.7071 0.7071 -33.3136 202.1706)" fill="#FFFFFF" width="12.607" height="22"/>
</g>
<g>
	<path fill="#FFFFFF" d="M418.395,147.938v40.377h38.83v10.309h-38.83v40.72h-10.996v-40.72h-38.83v-10.309h38.83v-40.377H418.395z"
		/>
</g>
<g>
	<path fill="none" stroke="#FFFFFF" stroke-width="14" stroke-linecap="round" stroke-linejoin="round" stroke-miterlimit="10" d="
		M822.246,157.075H608.351c-23.816,0-45.264,17.505-45.264,41.321v62.098c0,2.858,4.457,6.439,7.315,6.439h289.793
		c2.859,0,3.931-3.581,3.931-6.439v-62.098C864.126,174.579,846.062,157.075,822.246,157.075z"/>
	<path fill="none" stroke="#FFFFFF" stroke-width="14" stroke-linecap="round" stroke-linejoin="round" stroke-miterlimit="10" d="
		M864.126,213.612c0-2.858-2.317-5.175-5.175-5.175h-290.69c-2.858,0-5.175,2.317-5.175,5.175v48.146
		c0,2.858,2.317,5.175,5.175,5.175h290.69c2.858,0,5.175-2.317,5.175-5.175C864.126,261.758,864.126,213.612,864.126,213.612z"/>
	<path fill="none" stroke="#FFFFFF" stroke-width="14" stroke-linecap="round" stroke-linejoin="round" stroke-miterlimit="10" d="
		M838.445,141.381V63.848c0-2.858-1.265-3.791-4.125-3.791H596.276c-2.858,0-6.082,0.933-6.082,3.791v77.533"/>
	
		<line fill="none" stroke="#FFFFFF" stroke-width="14" stroke-linecap="round" stroke-linejoin="round" stroke-miterlimit="10" x1="563.086" y1="239.825" x2="563.086" y2="291.187"/>
	
		<line fill="none" stroke="#FFFFFF" stroke-width="14" stroke-linecap="round" stroke-linejoin="round" stroke-miterlimit="10" x1="864.126" y1="239.825" x2="864.126" y2="291.187"/>
	<path fill="none" stroke="#FFFFFF" stroke-width="14" stroke-linecap="round" stroke-linejoin="round" stroke-miterlimit="10" d="
		M784.998,141.249c0-12.822,2.749-26.325,2.749-26.325c0-2.276-1.846-4.346-4.123-4.346c0,0-12.821,2.634-25.413,2.634
		s-26.785-2.804-26.785-2.804c-2.278,0-4.125,1.816-4.125,4.093c0,0,2.749,13.023,2.749,26.761"/>
	<path fill="none" stroke="#FFFFFF" stroke-width="14" stroke-linecap="round" stroke-linejoin="round" stroke-miterlimit="10" d="
		M700.546,141.249c0-12.822,2.748-26.325,2.748-26.325c0-2.276-1.846-4.346-4.122-4.346c0,0-12.822,2.634-25.413,2.634
		c-12.594,0-26.787-2.804-26.787-2.804c-2.278,0-4.122,1.816-4.122,4.093c0,0,2.746,13.023,2.746,26.761"/>
</g>
</svg>
