<?xml version="1.0" encoding="utf-8"?>
<!-- Generator: Adobe Illustrator 17.0.0, SVG Export Plug-In . SVG Version: 6.00 Build 0)  -->
<!DOCTYPE svg PUBLIC "-//W3C//DTD SVG 1.1//EN" "http://www.w3.org/Graphics/SVG/1.1/DTD/svg11.dtd">
<svg version="1.1" id="Livello_1" xmlns="http://www.w3.org/2000/svg" xmlns:xlink="http://www.w3.org/1999/xlink" x="0px" y="0px"
	 width="55px" height="38.667px" viewBox="0 0 55 38.667" enable-background="new 0 0 55 38.667" xml:space="preserve">
<g>
	<polygon fill="#CC1042" points="5.041,9.731 6.455,8.317 27.812,29.674 49.169,8.317 50.583,9.731 27.812,32.502 	"/>
</g>
</svg>
