<?xml version="1.0" encoding="utf-8"?>
<!-- Generator: Adobe Illustrator 17.0.0, SVG Export Plug-In . SVG Version: 6.00 Build 0)  -->
<!DOCTYPE svg PUBLIC "-//W3C//DTD SVG 1.1//EN" "http://www.w3.org/Graphics/SVG/1.1/DTD/svg11.dtd">
<svg version="1.1" id="Livello_1" xmlns="http://www.w3.org/2000/svg" xmlns:xlink="http://www.w3.org/1999/xlink" x="0px" y="0px"
	 width="32.5px" height="53.75px" viewBox="0 0 32.5 53.75" enable-background="new 0 0 32.5 53.75" xml:space="preserve">
<g>
	<polygon fill="#CC1042" points="27.24,4.055 28.654,5.469 7.297,26.826 28.654,48.183 27.24,49.597 4.469,26.826 	"/>
</g>
</svg>
